digraph model_graph {
  // Dotfile by Django-Extensions graph_models
  // Created: 2014-12-18 05:01
  // Cli Options: -a

  fontname = "Helvetica"
  fontsize = 8
  splines  = true

  node [
    fontname = "Helvetica"
    fontsize = 8
    shape = "plaintext"
  ]

  edge [
    fontname = "Helvetica"
    fontsize = 8
  ]

  // Labels


  django_contrib_auth_models_AbstractUser [label=<
    <TABLE BGCOLOR="palegoldenrod" BORDER="0" CELLBORDER="0" CELLSPACING="0">
    <TR><TD COLSPAN="2" CELLPADDING="4" ALIGN="CENTER" BGCOLOR="olivedrab4">
    <FONT FACE="Helvetica Bold" COLOR="white">
    AbstractUser<BR/>&lt;<FONT FACE="Helvetica Italic">AbstractBaseUser,PermissionsMixin</FONT>&gt;
    </FONT></TD></TR>
  
    <TR><TD ALIGN="LEFT" BORDER="0">
    <FONT FACE="Helvetica ">date_joined</FONT>
    </TD><TD ALIGN="LEFT">
    <FONT FACE="Helvetica ">DateTimeField</FONT>
    </TD></TR>
  
    <TR><TD ALIGN="LEFT" BORDER="0">
    <FONT COLOR="#7B7B7B" FACE="Helvetica ">email</FONT>
    </TD><TD ALIGN="LEFT">
    <FONT COLOR="#7B7B7B" FACE="Helvetica ">EmailField</FONT>
    </TD></TR>
  
    <TR><TD ALIGN="LEFT" BORDER="0">
    <FONT COLOR="#7B7B7B" FACE="Helvetica ">first_name</FONT>
    </TD><TD ALIGN="LEFT">
    <FONT COLOR="#7B7B7B" FACE="Helvetica ">CharField</FONT>
    </TD></TR>
  
    <TR><TD ALIGN="LEFT" BORDER="0">
    <FONT COLOR="#7B7B7B" FACE="Helvetica ">is_active</FONT>
    </TD><TD ALIGN="LEFT">
    <FONT COLOR="#7B7B7B" FACE="Helvetica ">BooleanField</FONT>
    </TD></TR>
  
    <TR><TD ALIGN="LEFT" BORDER="0">
    <FONT COLOR="#7B7B7B" FACE="Helvetica ">is_staff</FONT>
    </TD><TD ALIGN="LEFT">
    <FONT COLOR="#7B7B7B" FACE="Helvetica ">BooleanField</FONT>
    </TD></TR>
  
    <TR><TD ALIGN="LEFT" BORDER="0">
    <FONT COLOR="#7B7B7B" FACE="Helvetica Italic">is_superuser</FONT>
    </TD><TD ALIGN="LEFT">
    <FONT COLOR="#7B7B7B" FACE="Helvetica Italic">BooleanField</FONT>
    </TD></TR>
  
    <TR><TD ALIGN="LEFT" BORDER="0">
    <FONT FACE="Helvetica Italic">last_login</FONT>
    </TD><TD ALIGN="LEFT">
    <FONT FACE="Helvetica Italic">DateTimeField</FONT>
    </TD></TR>
  
    <TR><TD ALIGN="LEFT" BORDER="0">
    <FONT COLOR="#7B7B7B" FACE="Helvetica ">last_name</FONT>
    </TD><TD ALIGN="LEFT">
    <FONT COLOR="#7B7B7B" FACE="Helvetica ">CharField</FONT>
    </TD></TR>
  
    <TR><TD ALIGN="LEFT" BORDER="0">
    <FONT FACE="Helvetica Italic">password</FONT>
    </TD><TD ALIGN="LEFT">
    <FONT FACE="Helvetica Italic">CharField</FONT>
    </TD></TR>
  
    <TR><TD ALIGN="LEFT" BORDER="0">
    <FONT FACE="Helvetica ">username</FONT>
    </TD><TD ALIGN="LEFT">
    <FONT FACE="Helvetica ">CharField</FONT>
    </TD></TR>
  
    </TABLE>
    >]

  kioskui_models_Supplier [label=<
    <TABLE BGCOLOR="palegoldenrod" BORDER="0" CELLBORDER="0" CELLSPACING="0">
    <TR><TD COLSPAN="2" CELLPADDING="4" ALIGN="CENTER" BGCOLOR="olivedrab4">
    <FONT FACE="Helvetica Bold" COLOR="white">
    Supplier
    </FONT></TD></TR>
  
    <TR><TD ALIGN="LEFT" BORDER="0">
    <FONT FACE="Helvetica Bold">id</FONT>
    </TD><TD ALIGN="LEFT">
    <FONT FACE="Helvetica Bold">AutoField</FONT>
    </TD></TR>
  
    <TR><TD ALIGN="LEFT" BORDER="0">
    <FONT FACE="Helvetica ">name</FONT>
    </TD><TD ALIGN="LEFT">
    <FONT FACE="Helvetica ">CharField</FONT>
    </TD></TR>
  
    </TABLE>
    >]

  kioskui_models_KioskUser [label=<
    <TABLE BGCOLOR="palegoldenrod" BORDER="0" CELLBORDER="0" CELLSPACING="0">
    <TR><TD COLSPAN="2" CELLPADDING="4" ALIGN="CENTER" BGCOLOR="olivedrab4">
    <FONT FACE="Helvetica Bold" COLOR="white">
    KioskUser<BR/>&lt;<FONT FACE="Helvetica Italic">AbstractUser</FONT>&gt;
    </FONT></TD></TR>
  
    <TR><TD ALIGN="LEFT" BORDER="0">
    <FONT FACE="Helvetica Bold">id</FONT>
    </TD><TD ALIGN="LEFT">
    <FONT FACE="Helvetica Bold">AutoField</FONT>
    </TD></TR>
  
    <TR><TD ALIGN="LEFT" BORDER="0">
    <FONT FACE="Helvetica ">account_expenses</FONT>
    </TD><TD ALIGN="LEFT">
    <FONT FACE="Helvetica ">CurrencyField</FONT>
    </TD></TR>
  
    <TR><TD ALIGN="LEFT" BORDER="0">
    <FONT FACE="Helvetica ">account_id</FONT>
    </TD><TD ALIGN="LEFT">
    <FONT FACE="Helvetica ">CharField</FONT>
    </TD></TR>
  
    <TR><TD ALIGN="LEFT" BORDER="0">
    <FONT FACE="Helvetica ">account_pin</FONT>
    </TD><TD ALIGN="LEFT">
    <FONT FACE="Helvetica ">IntegerField</FONT>
    </TD></TR>
  
    <TR><TD ALIGN="LEFT" BORDER="0">
    <FONT FACE="Helvetica ">admin_deducts</FONT>
    </TD><TD ALIGN="LEFT">
    <FONT FACE="Helvetica ">CurrencyField</FONT>
    </TD></TR>
  
    <TR><TD ALIGN="LEFT" BORDER="0">
    <FONT FACE="Helvetica ">admin_deposits</FONT>
    </TD><TD ALIGN="LEFT">
    <FONT FACE="Helvetica ">CurrencyField</FONT>
    </TD></TR>
  
    <TR><TD ALIGN="LEFT" BORDER="0">
    <FONT FACE="Helvetica ">cash_deposits</FONT>
    </TD><TD ALIGN="LEFT">
    <FONT FACE="Helvetica ">CurrencyField</FONT>
    </TD></TR>
  
    <TR><TD ALIGN="LEFT" BORDER="0">
    <FONT COLOR="#7B7B7B" FACE="Helvetica ">company</FONT>
    </TD><TD ALIGN="LEFT">
    <FONT COLOR="#7B7B7B" FACE="Helvetica ">CharField</FONT>
    </TD></TR>
  
    <TR><TD ALIGN="LEFT" BORDER="0">
    <FONT FACE="Helvetica ">credit_card_deposits</FONT>
    </TD><TD ALIGN="LEFT">
    <FONT FACE="Helvetica ">CurrencyField</FONT>
    </TD></TR>
  
    <TR><TD ALIGN="LEFT" BORDER="0">
    <FONT FACE="Helvetica ">credit_card_expenses</FONT>
    </TD><TD ALIGN="LEFT">
    <FONT FACE="Helvetica ">CurrencyField</FONT>
    </TD></TR>
  
    <TR><TD ALIGN="LEFT" BORDER="0">
    <FONT FACE="Helvetica Italic">date_joined</FONT>
    </TD><TD ALIGN="LEFT">
    <FONT FACE="Helvetica Italic">DateTimeField</FONT>
    </TD></TR>
  
    <TR><TD ALIGN="LEFT" BORDER="0">
    <FONT FACE="Helvetica ">debit_card_deposits</FONT>
    </TD><TD ALIGN="LEFT">
    <FONT FACE="Helvetica ">CurrencyField</FONT>
    </TD></TR>
  
    <TR><TD ALIGN="LEFT" BORDER="0">
    <FONT FACE="Helvetica ">debit_card_expenses</FONT>
    </TD><TD ALIGN="LEFT">
    <FONT FACE="Helvetica ">CurrencyField</FONT>
    </TD></TR>
  
    <TR><TD ALIGN="LEFT" BORDER="0">
    <FONT COLOR="#7B7B7B" FACE="Helvetica Italic">email</FONT>
    </TD><TD ALIGN="LEFT">
    <FONT COLOR="#7B7B7B" FACE="Helvetica Italic">EmailField</FONT>
    </TD></TR>
  
    <TR><TD ALIGN="LEFT" BORDER="0">
    <FONT COLOR="#7B7B7B" FACE="Helvetica Italic">first_name</FONT>
    </TD><TD ALIGN="LEFT">
    <FONT COLOR="#7B7B7B" FACE="Helvetica Italic">CharField</FONT>
    </TD></TR>
  
    <TR><TD ALIGN="LEFT" BORDER="0">
    <FONT COLOR="#7B7B7B" FACE="Helvetica Italic">is_active</FONT>
    </TD><TD ALIGN="LEFT">
    <FONT COLOR="#7B7B7B" FACE="Helvetica Italic">BooleanField</FONT>
    </TD></TR>
  
    <TR><TD ALIGN="LEFT" BORDER="0">
    <FONT COLOR="#7B7B7B" FACE="Helvetica ">is_cashbox_manager</FONT>
    </TD><TD ALIGN="LEFT">
    <FONT COLOR="#7B7B7B" FACE="Helvetica ">BooleanField</FONT>
    </TD></TR>
  
    <TR><TD ALIGN="LEFT" BORDER="0">
    <FONT COLOR="#7B7B7B" FACE="Helvetica Italic">is_staff</FONT>
    </TD><TD ALIGN="LEFT">
    <FONT COLOR="#7B7B7B" FACE="Helvetica Italic">BooleanField</FONT>
    </TD></TR>
  
    <TR><TD ALIGN="LEFT" BORDER="0">
    <FONT COLOR="#7B7B7B" FACE="Helvetica Italic">is_superuser</FONT>
    </TD><TD ALIGN="LEFT">
    <FONT COLOR="#7B7B7B" FACE="Helvetica Italic">BooleanField</FONT>
    </TD></TR>
  
    <TR><TD ALIGN="LEFT" BORDER="0">
    <FONT FACE="Helvetica Italic">last_login</FONT>
    </TD><TD ALIGN="LEFT">
    <FONT FACE="Helvetica Italic">DateTimeField</FONT>
    </TD></TR>
  
    <TR><TD ALIGN="LEFT" BORDER="0">
    <FONT COLOR="#7B7B7B" FACE="Helvetica Italic">last_name</FONT>
    </TD><TD ALIGN="LEFT">
    <FONT COLOR="#7B7B7B" FACE="Helvetica Italic">CharField</FONT>
    </TD></TR>
  
    <TR><TD ALIGN="LEFT" BORDER="0">
    <FONT COLOR="#7B7B7B" FACE="Helvetica ">location</FONT>
    </TD><TD ALIGN="LEFT">
    <FONT COLOR="#7B7B7B" FACE="Helvetica ">CharField</FONT>
    </TD></TR>
  
    <TR><TD ALIGN="LEFT" BORDER="0">
    <FONT FACE="Helvetica Italic">password</FONT>
    </TD><TD ALIGN="LEFT">
    <FONT FACE="Helvetica Italic">CharField</FONT>
    </TD></TR>
  
    <TR><TD ALIGN="LEFT" BORDER="0">
    <FONT FACE="Helvetica Italic">username</FONT>
    </TD><TD ALIGN="LEFT">
    <FONT FACE="Helvetica Italic">CharField</FONT>
    </TD></TR>
  
    </TABLE>
    >]

  kioskui_models_UserCashFlow [label=<
    <TABLE BGCOLOR="palegoldenrod" BORDER="0" CELLBORDER="0" CELLSPACING="0">
    <TR><TD COLSPAN="2" CELLPADDING="4" ALIGN="CENTER" BGCOLOR="olivedrab4">
    <FONT FACE="Helvetica Bold" COLOR="white">
    UserCashFlow
    </FONT></TD></TR>
  
    <TR><TD ALIGN="LEFT" BORDER="0">
    <FONT FACE="Helvetica Bold">id</FONT>
    </TD><TD ALIGN="LEFT">
    <FONT FACE="Helvetica Bold">AutoField</FONT>
    </TD></TR>
  
    <TR><TD ALIGN="LEFT" BORDER="0">
    <FONT COLOR="#7B7B7B" FACE="Helvetica Bold">user</FONT>
    </TD><TD ALIGN="LEFT">
    <FONT COLOR="#7B7B7B" FACE="Helvetica Bold">ForeignKey (id)</FONT>
    </TD></TR>
  
    <TR><TD ALIGN="LEFT" BORDER="0">
    <FONT FACE="Helvetica ">amount</FONT>
    </TD><TD ALIGN="LEFT">
    <FONT FACE="Helvetica ">CurrencyField</FONT>
    </TD></TR>
  
    <TR><TD ALIGN="LEFT" BORDER="0">
    <FONT COLOR="#7B7B7B" FACE="Helvetica ">date</FONT>
    </TD><TD ALIGN="LEFT">
    <FONT COLOR="#7B7B7B" FACE="Helvetica ">DateTimeField</FONT>
    </TD></TR>
  
    <TR><TD ALIGN="LEFT" BORDER="0">
    <FONT COLOR="#7B7B7B" FACE="Helvetica ">description</FONT>
    </TD><TD ALIGN="LEFT">
    <FONT COLOR="#7B7B7B" FACE="Helvetica ">TextField</FONT>
    </TD></TR>
  
    <TR><TD ALIGN="LEFT" BORDER="0">
    <FONT COLOR="#7B7B7B" FACE="Helvetica ">extra_field</FONT>
    </TD><TD ALIGN="LEFT">
    <FONT COLOR="#7B7B7B" FACE="Helvetica ">CharField</FONT>
    </TD></TR>
  
    <TR><TD ALIGN="LEFT" BORDER="0">
    <FONT COLOR="#7B7B7B" FACE="Helvetica ">modified</FONT>
    </TD><TD ALIGN="LEFT">
    <FONT COLOR="#7B7B7B" FACE="Helvetica ">DateTimeField</FONT>
    </TD></TR>
  
    <TR><TD ALIGN="LEFT" BORDER="0">
    <FONT COLOR="#7B7B7B" FACE="Helvetica ">order_id</FONT>
    </TD><TD ALIGN="LEFT">
    <FONT COLOR="#7B7B7B" FACE="Helvetica ">CharField</FONT>
    </TD></TR>
  
    <TR><TD ALIGN="LEFT" BORDER="0">
    <FONT COLOR="#7B7B7B" FACE="Helvetica ">post</FONT>
    </TD><TD ALIGN="LEFT">
    <FONT COLOR="#7B7B7B" FACE="Helvetica ">CurrencyField</FONT>
    </TD></TR>
  
    <TR><TD ALIGN="LEFT" BORDER="0">
    <FONT COLOR="#7B7B7B" FACE="Helvetica ">pre</FONT>
    </TD><TD ALIGN="LEFT">
    <FONT COLOR="#7B7B7B" FACE="Helvetica ">CurrencyField</FONT>
    </TD></TR>
  
    <TR><TD ALIGN="LEFT" BORDER="0">
    <FONT FACE="Helvetica ">status</FONT>
    </TD><TD ALIGN="LEFT">
    <FONT FACE="Helvetica ">IntegerField</FONT>
    </TD></TR>
  
    </TABLE>
    >]

  kioskui_models_BarcodeProduct [label=<
    <TABLE BGCOLOR="palegoldenrod" BORDER="0" CELLBORDER="0" CELLSPACING="0">
    <TR><TD COLSPAN="2" CELLPADDING="4" ALIGN="CENTER" BGCOLOR="olivedrab4">
    <FONT FACE="Helvetica Bold" COLOR="white">
    BarcodeProduct
    </FONT></TD></TR>
  
    <TR><TD ALIGN="LEFT" BORDER="0">
    <FONT FACE="Helvetica Bold">product_ptr</FONT>
    </TD><TD ALIGN="LEFT">
    <FONT FACE="Helvetica Bold">OneToOneField (id)</FONT>
    </TD></TR>
  
    <TR><TD ALIGN="LEFT" BORDER="0">
    <FONT COLOR="#7B7B7B" FACE="Helvetica Bold">supplier</FONT>
    </TD><TD ALIGN="LEFT">
    <FONT COLOR="#7B7B7B" FACE="Helvetica Bold">ForeignKey (id)</FONT>
    </TD></TR>
  
    <TR><TD ALIGN="LEFT" BORDER="0">
    <FONT FACE="Helvetica ">barcode</FONT>
    </TD><TD ALIGN="LEFT">
    <FONT FACE="Helvetica ">CharField</FONT>
    </TD></TR>
  
    <TR><TD ALIGN="LEFT" BORDER="0">
    <FONT COLOR="#7B7B7B" FACE="Helvetica ">bottle_deposit</FONT>
    </TD><TD ALIGN="LEFT">
    <FONT COLOR="#7B7B7B" FACE="Helvetica ">BooleanField</FONT>
    </TD></TR>
  
    <TR><TD ALIGN="LEFT" BORDER="0">
    <FONT FACE="Helvetica ">case_qty</FONT>
    </TD><TD ALIGN="LEFT">
    <FONT FACE="Helvetica ">IntegerField</FONT>
    </TD></TR>
  
    <TR><TD ALIGN="LEFT" BORDER="0">
    <FONT COLOR="#7B7B7B" FACE="Helvetica ">case_upc</FONT>
    </TD><TD ALIGN="LEFT">
    <FONT COLOR="#7B7B7B" FACE="Helvetica ">CharField</FONT>
    </TD></TR>
  
    <TR><TD ALIGN="LEFT" BORDER="0">
    <FONT COLOR="#7B7B7B" FACE="Helvetica ">demand</FONT>
    </TD><TD ALIGN="LEFT">
    <FONT COLOR="#7B7B7B" FACE="Helvetica ">IntegerField</FONT>
    </TD></TR>
  
    <TR><TD ALIGN="LEFT" BORDER="0">
    <FONT COLOR="#7B7B7B" FACE="Helvetica ">demand_two</FONT>
    </TD><TD ALIGN="LEFT">
    <FONT COLOR="#7B7B7B" FACE="Helvetica ">IntegerField</FONT>
    </TD></TR>
  
    <TR><TD ALIGN="LEFT" BORDER="0">
    <FONT COLOR="#7B7B7B" FACE="Helvetica ">hst</FONT>
    </TD><TD ALIGN="LEFT">
    <FONT COLOR="#7B7B7B" FACE="Helvetica ">BooleanField</FONT>
    </TD></TR>
  
    <TR><TD ALIGN="LEFT" BORDER="0">
    <FONT COLOR="#7B7B7B" FACE="Helvetica ">lead_time</FONT>
    </TD><TD ALIGN="LEFT">
    <FONT COLOR="#7B7B7B" FACE="Helvetica ">FloatField</FONT>
    </TD></TR>
  
    <TR><TD ALIGN="LEFT" BORDER="0">
    <FONT COLOR="#7B7B7B" FACE="Helvetica ">max_stock</FONT>
    </TD><TD ALIGN="LEFT">
    <FONT COLOR="#7B7B7B" FACE="Helvetica ">IntegerField</FONT>
    </TD></TR>
  
    <TR><TD ALIGN="LEFT" BORDER="0">
    <FONT COLOR="#7B7B7B" FACE="Helvetica ">min_stock</FONT>
    </TD><TD ALIGN="LEFT">
    <FONT COLOR="#7B7B7B" FACE="Helvetica ">IntegerField</FONT>
    </TD></TR>
  
    <TR><TD ALIGN="LEFT" BORDER="0">
    <FONT COLOR="#7B7B7B" FACE="Helvetica ">pst</FONT>
    </TD><TD ALIGN="LEFT">
    <FONT COLOR="#7B7B7B" FACE="Helvetica ">BooleanField</FONT>
    </TD></TR>
  
    <TR><TD ALIGN="LEFT" BORDER="0">
    <FONT FACE="Helvetica ">quantity</FONT>
    </TD><TD ALIGN="LEFT">
    <FONT FACE="Helvetica ">IntegerField</FONT>
    </TD></TR>
  
    <TR><TD ALIGN="LEFT" BORDER="0">
    <FONT FACE="Helvetica ">unit_cost</FONT>
    </TD><TD ALIGN="LEFT">
    <FONT FACE="Helvetica ">FloatField</FONT>
    </TD></TR>
  
    </TABLE>
    >]

  kioskui_models_NoBarcodeProduct [label=<
    <TABLE BGCOLOR="palegoldenrod" BORDER="0" CELLBORDER="0" CELLSPACING="0">
    <TR><TD COLSPAN="2" CELLPADDING="4" ALIGN="CENTER" BGCOLOR="olivedrab4">
    <FONT FACE="Helvetica Bold" COLOR="white">
    NoBarcodeProduct
    </FONT></TD></TR>
  
    <TR><TD ALIGN="LEFT" BORDER="0">
    <FONT FACE="Helvetica Bold">product_ptr</FONT>
    </TD><TD ALIGN="LEFT">
    <FONT FACE="Helvetica Bold">OneToOneField (id)</FONT>
    </TD></TR>
  
    <TR><TD ALIGN="LEFT" BORDER="0">
    <FONT COLOR="#7B7B7B" FACE="Helvetica ">hst</FONT>
    </TD><TD ALIGN="LEFT">
    <FONT COLOR="#7B7B7B" FACE="Helvetica ">BooleanField</FONT>
    </TD></TR>
  
    <TR><TD ALIGN="LEFT" BORDER="0">
    <FONT FACE="Helvetica ">image</FONT>
    </TD><TD ALIGN="LEFT">
    <FONT FACE="Helvetica ">ImageField</FONT>
    </TD></TR>
  
    <TR><TD ALIGN="LEFT" BORDER="0">
    <FONT FACE="Helvetica ">ordering</FONT>
    </TD><TD ALIGN="LEFT">
    <FONT FACE="Helvetica ">IntegerField</FONT>
    </TD></TR>
  
    <TR><TD ALIGN="LEFT" BORDER="0">
    <FONT COLOR="#7B7B7B" FACE="Helvetica ">pst</FONT>
    </TD><TD ALIGN="LEFT">
    <FONT COLOR="#7B7B7B" FACE="Helvetica ">BooleanField</FONT>
    </TD></TR>
  
    <TR><TD ALIGN="LEFT" BORDER="0">
    <FONT FACE="Helvetica ">quantity</FONT>
    </TD><TD ALIGN="LEFT">
    <FONT FACE="Helvetica ">IntegerField</FONT>
    </TD></TR>
  
    <TR><TD ALIGN="LEFT" BORDER="0">
    <FONT FACE="Helvetica ">unit_cost</FONT>
    </TD><TD ALIGN="LEFT">
    <FONT FACE="Helvetica ">FloatField</FONT>
    </TD></TR>
  
    </TABLE>
    >]

  kioskui_models_Tax [label=<
    <TABLE BGCOLOR="palegoldenrod" BORDER="0" CELLBORDER="0" CELLSPACING="0">
    <TR><TD COLSPAN="2" CELLPADDING="4" ALIGN="CENTER" BGCOLOR="olivedrab4">
    <FONT FACE="Helvetica Bold" COLOR="white">
    Tax
    </FONT></TD></TR>
  
    <TR><TD ALIGN="LEFT" BORDER="0">
    <FONT FACE="Helvetica Bold">id</FONT>
    </TD><TD ALIGN="LEFT">
    <FONT FACE="Helvetica Bold">AutoField</FONT>
    </TD></TR>
  
    <TR><TD ALIGN="LEFT" BORDER="0">
    <FONT FACE="Helvetica ">name</FONT>
    </TD><TD ALIGN="LEFT">
    <FONT FACE="Helvetica ">CharField</FONT>
    </TD></TR>
  
    <TR><TD ALIGN="LEFT" BORDER="0">
    <FONT FACE="Helvetica ">value</FONT>
    </TD><TD ALIGN="LEFT">
    <FONT FACE="Helvetica ">CharField</FONT>
    </TD></TR>
  
    </TABLE>
    >]

  kioskui_models_MissingBarcodeOrKeycard [label=<
    <TABLE BGCOLOR="palegoldenrod" BORDER="0" CELLBORDER="0" CELLSPACING="0">
    <TR><TD COLSPAN="2" CELLPADDING="4" ALIGN="CENTER" BGCOLOR="olivedrab4">
    <FONT FACE="Helvetica Bold" COLOR="white">
    MissingBarcodeOrKeycard
    </FONT></TD></TR>
  
    <TR><TD ALIGN="LEFT" BORDER="0">
    <FONT FACE="Helvetica Bold">id</FONT>
    </TD><TD ALIGN="LEFT">
    <FONT FACE="Helvetica Bold">AutoField</FONT>
    </TD></TR>
  
    <TR><TD ALIGN="LEFT" BORDER="0">
    <FONT FACE="Helvetica ">barcode</FONT>
    </TD><TD ALIGN="LEFT">
    <FONT FACE="Helvetica ">CharField</FONT>
    </TD></TR>
  
    <TR><TD ALIGN="LEFT" BORDER="0">
    <FONT FACE="Helvetica ">date</FONT>
    </TD><TD ALIGN="LEFT">
    <FONT FACE="Helvetica ">DateTimeField</FONT>
    </TD></TR>
  
    </TABLE>
    >]

  kioskui_models_CashBox [label=<
    <TABLE BGCOLOR="palegoldenrod" BORDER="0" CELLBORDER="0" CELLSPACING="0">
    <TR><TD COLSPAN="2" CELLPADDING="4" ALIGN="CENTER" BGCOLOR="olivedrab4">
    <FONT FACE="Helvetica Bold" COLOR="white">
    CashBox
    </FONT></TD></TR>
  
    <TR><TD ALIGN="LEFT" BORDER="0">
    <FONT FACE="Helvetica Bold">id</FONT>
    </TD><TD ALIGN="LEFT">
    <FONT FACE="Helvetica Bold">AutoField</FONT>
    </TD></TR>
  
    <TR><TD ALIGN="LEFT" BORDER="0">
    <FONT COLOR="#7B7B7B" FACE="Helvetica Bold">emptied_by</FONT>
    </TD><TD ALIGN="LEFT">
    <FONT COLOR="#7B7B7B" FACE="Helvetica Bold">ForeignKey (id)</FONT>
    </TD></TR>
  
    <TR><TD ALIGN="LEFT" BORDER="0">
    <FONT FACE="Helvetica ">amount</FONT>
    </TD><TD ALIGN="LEFT">
    <FONT FACE="Helvetica ">CurrencyField</FONT>
    </TD></TR>
  
    <TR><TD ALIGN="LEFT" BORDER="0">
    <FONT COLOR="#7B7B7B" FACE="Helvetica ">created</FONT>
    </TD><TD ALIGN="LEFT">
    <FONT COLOR="#7B7B7B" FACE="Helvetica ">DateTimeField</FONT>
    </TD></TR>
  
    <TR><TD ALIGN="LEFT" BORDER="0">
    <FONT COLOR="#7B7B7B" FACE="Helvetica ">emptied</FONT>
    </TD><TD ALIGN="LEFT">
    <FONT COLOR="#7B7B7B" FACE="Helvetica ">BooleanField</FONT>
    </TD></TR>
  
    <TR><TD ALIGN="LEFT" BORDER="0">
    <FONT COLOR="#7B7B7B" FACE="Helvetica ">emptied_at</FONT>
    </TD><TD ALIGN="LEFT">
    <FONT COLOR="#7B7B7B" FACE="Helvetica ">DateTimeField</FONT>
    </TD></TR>
  
    <TR><TD ALIGN="LEFT" BORDER="0">
    <FONT COLOR="#7B7B7B" FACE="Helvetica ">end_date</FONT>
    </TD><TD ALIGN="LEFT">
    <FONT COLOR="#7B7B7B" FACE="Helvetica ">DateTimeField</FONT>
    </TD></TR>
  
    <TR><TD ALIGN="LEFT" BORDER="0">
    <FONT COLOR="#7B7B7B" FACE="Helvetica ">extra_info</FONT>
    </TD><TD ALIGN="LEFT">
    <FONT COLOR="#7B7B7B" FACE="Helvetica ">TextField</FONT>
    </TD></TR>
  
    <TR><TD ALIGN="LEFT" BORDER="0">
    <FONT COLOR="#7B7B7B" FACE="Helvetica ">start_date</FONT>
    </TD><TD ALIGN="LEFT">
    <FONT COLOR="#7B7B7B" FACE="Helvetica ">DateTimeField</FONT>
    </TD></TR>
  
    </TABLE>
    >]

  kioskui_models_QuantityMovement [label=<
    <TABLE BGCOLOR="palegoldenrod" BORDER="0" CELLBORDER="0" CELLSPACING="0">
    <TR><TD COLSPAN="2" CELLPADDING="4" ALIGN="CENTER" BGCOLOR="olivedrab4">
    <FONT FACE="Helvetica Bold" COLOR="white">
    QuantityMovement
    </FONT></TD></TR>
  
    <TR><TD ALIGN="LEFT" BORDER="0">
    <FONT FACE="Helvetica Bold">id</FONT>
    </TD><TD ALIGN="LEFT">
    <FONT FACE="Helvetica Bold">AutoField</FONT>
    </TD></TR>
  
    <TR><TD ALIGN="LEFT" BORDER="0">
    <FONT FACE="Helvetica ">amount</FONT>
    </TD><TD ALIGN="LEFT">
    <FONT FACE="Helvetica ">CharField</FONT>
    </TD></TR>
  
    <TR><TD ALIGN="LEFT" BORDER="0">
    <FONT COLOR="#7B7B7B" FACE="Helvetica ">created</FONT>
    </TD><TD ALIGN="LEFT">
    <FONT COLOR="#7B7B7B" FACE="Helvetica ">DateTimeField</FONT>
    </TD></TR>
  
    <TR><TD ALIGN="LEFT" BORDER="0">
    <FONT FACE="Helvetica ">post_quantity</FONT>
    </TD><TD ALIGN="LEFT">
    <FONT FACE="Helvetica ">CharField</FONT>
    </TD></TR>
  
    <TR><TD ALIGN="LEFT" BORDER="0">
    <FONT FACE="Helvetica ">pre_quantity</FONT>
    </TD><TD ALIGN="LEFT">
    <FONT FACE="Helvetica ">CharField</FONT>
    </TD></TR>
  
    <TR><TD ALIGN="LEFT" BORDER="0">
    <FONT COLOR="#7B7B7B" FACE="Helvetica ">product_barcode</FONT>
    </TD><TD ALIGN="LEFT">
    <FONT COLOR="#7B7B7B" FACE="Helvetica ">CharField</FONT>
    </TD></TR>
  
    <TR><TD ALIGN="LEFT" BORDER="0">
    <FONT FACE="Helvetica ">product_name</FONT>
    </TD><TD ALIGN="LEFT">
    <FONT FACE="Helvetica ">CharField</FONT>
    </TD></TR>
  
    <TR><TD ALIGN="LEFT" BORDER="0">
    <FONT FACE="Helvetica ">slug</FONT>
    </TD><TD ALIGN="LEFT">
    <FONT FACE="Helvetica ">SlugField</FONT>
    </TD></TR>
  
    <TR><TD ALIGN="LEFT" BORDER="0">
    <FONT FACE="Helvetica ">status</FONT>
    </TD><TD ALIGN="LEFT">
    <FONT FACE="Helvetica ">IntegerField</FONT>
    </TD></TR>
  
    </TABLE>
    >]

  kioskui_models_LocationInfo [label=<
    <TABLE BGCOLOR="palegoldenrod" BORDER="0" CELLBORDER="0" CELLSPACING="0">
    <TR><TD COLSPAN="2" CELLPADDING="4" ALIGN="CENTER" BGCOLOR="olivedrab4">
    <FONT FACE="Helvetica Bold" COLOR="white">
    LocationInfo
    </FONT></TD></TR>
  
    <TR><TD ALIGN="LEFT" BORDER="0">
    <FONT FACE="Helvetica Bold">id</FONT>
    </TD><TD ALIGN="LEFT">
    <FONT FACE="Helvetica Bold">AutoField</FONT>
    </TD></TR>
  
    <TR><TD ALIGN="LEFT" BORDER="0">
    <FONT FACE="Helvetica ">address</FONT>
    </TD><TD ALIGN="LEFT">
    <FONT FACE="Helvetica ">CharField</FONT>
    </TD></TR>
  
    <TR><TD ALIGN="LEFT" BORDER="0">
    <FONT FACE="Helvetica ">contact_name</FONT>
    </TD><TD ALIGN="LEFT">
    <FONT FACE="Helvetica ">CharField</FONT>
    </TD></TR>
  
    <TR><TD ALIGN="LEFT" BORDER="0">
    <FONT FACE="Helvetica ">contact_number</FONT>
    </TD><TD ALIGN="LEFT">
    <FONT FACE="Helvetica ">CharField</FONT>
    </TD></TR>
  
    <TR><TD ALIGN="LEFT" BORDER="0">
    <FONT FACE="Helvetica ">hours</FONT>
    </TD><TD ALIGN="LEFT">
    <FONT FACE="Helvetica ">DateTimeField</FONT>
    </TD></TR>
  
    <TR><TD ALIGN="LEFT" BORDER="0">
    <FONT FACE="Helvetica ">location_name</FONT>
    </TD><TD ALIGN="LEFT">
    <FONT FACE="Helvetica ">CharField</FONT>
    </TD></TR>
  
    <TR><TD ALIGN="LEFT" BORDER="0">
    <FONT FACE="Helvetica ">notes</FONT>
    </TD><TD ALIGN="LEFT">
    <FONT FACE="Helvetica ">CharField</FONT>
    </TD></TR>
  
    </TABLE>
    >]

  kioskui_models_RestockFrequency [label=<
    <TABLE BGCOLOR="palegoldenrod" BORDER="0" CELLBORDER="0" CELLSPACING="0">
    <TR><TD COLSPAN="2" CELLPADDING="4" ALIGN="CENTER" BGCOLOR="olivedrab4">
    <FONT FACE="Helvetica Bold" COLOR="white">
    RestockFrequency
    </FONT></TD></TR>
  
    <TR><TD ALIGN="LEFT" BORDER="0">
    <FONT FACE="Helvetica Bold">id</FONT>
    </TD><TD ALIGN="LEFT">
    <FONT FACE="Helvetica Bold">AutoField</FONT>
    </TD></TR>
  
    <TR><TD ALIGN="LEFT" BORDER="0">
    <FONT FACE="Helvetica ">restock_frequency</FONT>
    </TD><TD ALIGN="LEFT">
    <FONT FACE="Helvetica ">IntegerField</FONT>
    </TD></TR>
  
    </TABLE>
    >]

  kioskui_models_ExtraCategoryFields [label=<
    <TABLE BGCOLOR="palegoldenrod" BORDER="0" CELLBORDER="0" CELLSPACING="0">
    <TR><TD COLSPAN="2" CELLPADDING="4" ALIGN="CENTER" BGCOLOR="olivedrab4">
    <FONT FACE="Helvetica Bold" COLOR="white">
    ExtraCategoryFields
    </FONT></TD></TR>
  
    <TR><TD ALIGN="LEFT" BORDER="0">
    <FONT FACE="Helvetica Bold">id</FONT>
    </TD><TD ALIGN="LEFT">
    <FONT FACE="Helvetica Bold">AutoField</FONT>
    </TD></TR>
  
    <TR><TD ALIGN="LEFT" BORDER="0">
    <FONT FACE="Helvetica Bold">category</FONT>
    </TD><TD ALIGN="LEFT">
    <FONT FACE="Helvetica Bold">ForeignKey (id)</FONT>
    </TD></TR>
  
    <TR><TD ALIGN="LEFT" BORDER="0">
    <FONT FACE="Helvetica ">days_of_product</FONT>
    </TD><TD ALIGN="LEFT">
    <FONT FACE="Helvetica ">IntegerField</FONT>
    </TD></TR>
  
    <TR><TD ALIGN="LEFT" BORDER="0">
    <FONT COLOR="#7B7B7B" FACE="Helvetica ">hard_max</FONT>
    </TD><TD ALIGN="LEFT">
    <FONT COLOR="#7B7B7B" FACE="Helvetica ">IntegerField</FONT>
    </TD></TR>
  
    <TR><TD ALIGN="LEFT" BORDER="0">
    <FONT COLOR="#7B7B7B" FACE="Helvetica ">round_to_case</FONT>
    </TD><TD ALIGN="LEFT">
    <FONT COLOR="#7B7B7B" FACE="Helvetica ">BooleanField</FONT>
    </TD></TR>
  
    </TABLE>
    >]

  kioskui_models_ChoicesPlaceHolder [label=<
    <TABLE BGCOLOR="palegoldenrod" BORDER="0" CELLBORDER="0" CELLSPACING="0">
    <TR><TD COLSPAN="2" CELLPADDING="4" ALIGN="CENTER" BGCOLOR="olivedrab4">
    <FONT FACE="Helvetica Bold" COLOR="white">
    ChoicesPlaceHolder
    </FONT></TD></TR>
  
    <TR><TD ALIGN="LEFT" BORDER="0">
    <FONT FACE="Helvetica Bold">id</FONT>
    </TD><TD ALIGN="LEFT">
    <FONT FACE="Helvetica Bold">AutoField</FONT>
    </TD></TR>
  
    <TR><TD ALIGN="LEFT" BORDER="0">
    <FONT COLOR="#7B7B7B" FACE="Helvetica ">created</FONT>
    </TD><TD ALIGN="LEFT">
    <FONT COLOR="#7B7B7B" FACE="Helvetica ">DateTimeField</FONT>
    </TD></TR>
  
    <TR><TD ALIGN="LEFT" BORDER="0">
    <FONT COLOR="#7B7B7B" FACE="Helvetica ">email</FONT>
    </TD><TD ALIGN="LEFT">
    <FONT COLOR="#7B7B7B" FACE="Helvetica ">EmailField</FONT>
    </TD></TR>
  
    <TR><TD ALIGN="LEFT" BORDER="0">
    <FONT COLOR="#7B7B7B" FACE="Helvetica ">modified</FONT>
    </TD><TD ALIGN="LEFT">
    <FONT COLOR="#7B7B7B" FACE="Helvetica ">DateTimeField</FONT>
    </TD></TR>
  
    <TR><TD ALIGN="LEFT" BORDER="0">
    <FONT FACE="Helvetica ">name</FONT>
    </TD><TD ALIGN="LEFT">
    <FONT FACE="Helvetica ">CharField</FONT>
    </TD></TR>
  
    <TR><TD ALIGN="LEFT" BORDER="0">
    <FONT COLOR="#7B7B7B" FACE="Helvetica ">schedule</FONT>
    </TD><TD ALIGN="LEFT">
    <FONT COLOR="#7B7B7B" FACE="Helvetica ">BooleanField</FONT>
    </TD></TR>
  
    <TR><TD ALIGN="LEFT" BORDER="0">
    <FONT COLOR="#7B7B7B" FACE="Helvetica ">scheduled_date</FONT>
    </TD><TD ALIGN="LEFT">
    <FONT COLOR="#7B7B7B" FACE="Helvetica ">DateTimeField</FONT>
    </TD></TR>
  
    <TR><TD ALIGN="LEFT" BORDER="0">
    <FONT FACE="Helvetica ">slug</FONT>
    </TD><TD ALIGN="LEFT">
    <FONT FACE="Helvetica ">SlugField</FONT>
    </TD></TR>
  
    </TABLE>
    >]

  kioskui_models_RestockCategoryChoice [label=<
    <TABLE BGCOLOR="palegoldenrod" BORDER="0" CELLBORDER="0" CELLSPACING="0">
    <TR><TD COLSPAN="2" CELLPADDING="4" ALIGN="CENTER" BGCOLOR="olivedrab4">
    <FONT FACE="Helvetica Bold" COLOR="white">
    RestockCategoryChoice
    </FONT></TD></TR>
  
    <TR><TD ALIGN="LEFT" BORDER="0">
    <FONT FACE="Helvetica Bold">id</FONT>
    </TD><TD ALIGN="LEFT">
    <FONT FACE="Helvetica Bold">AutoField</FONT>
    </TD></TR>
  
    <TR><TD ALIGN="LEFT" BORDER="0">
    <FONT FACE="Helvetica Bold">category</FONT>
    </TD><TD ALIGN="LEFT">
    <FONT FACE="Helvetica Bold">ForeignKey (id)</FONT>
    </TD></TR>
  
    <TR><TD ALIGN="LEFT" BORDER="0">
    <FONT FACE="Helvetica Bold">place_holder</FONT>
    </TD><TD ALIGN="LEFT">
    <FONT FACE="Helvetica Bold">ForeignKey (id)</FONT>
    </TD></TR>
  
    </TABLE>
    >]

  kioskui_models_RestockInventoryReport [label=<
    <TABLE BGCOLOR="palegoldenrod" BORDER="0" CELLBORDER="0" CELLSPACING="0">
    <TR><TD COLSPAN="2" CELLPADDING="4" ALIGN="CENTER" BGCOLOR="olivedrab4">
    <FONT FACE="Helvetica Bold" COLOR="white">
    RestockInventoryReport
    </FONT></TD></TR>
  
    <TR><TD ALIGN="LEFT" BORDER="0">
    <FONT FACE="Helvetica Bold">id</FONT>
    </TD><TD ALIGN="LEFT">
    <FONT FACE="Helvetica Bold">AutoField</FONT>
    </TD></TR>
  
    <TR><TD ALIGN="LEFT" BORDER="0">
    <FONT COLOR="#7B7B7B" FACE="Helvetica ">created</FONT>
    </TD><TD ALIGN="LEFT">
    <FONT COLOR="#7B7B7B" FACE="Helvetica ">DateTimeField</FONT>
    </TD></TR>
  
    <TR><TD ALIGN="LEFT" BORDER="0">
    <FONT COLOR="#7B7B7B" FACE="Helvetica ">isUpdated</FONT>
    </TD><TD ALIGN="LEFT">
    <FONT COLOR="#7B7B7B" FACE="Helvetica ">BooleanField</FONT>
    </TD></TR>
  
    <TR><TD ALIGN="LEFT" BORDER="0">
    <FONT FACE="Helvetica ">name</FONT>
    </TD><TD ALIGN="LEFT">
    <FONT FACE="Helvetica ">CharField</FONT>
    </TD></TR>
  
    <TR><TD ALIGN="LEFT" BORDER="0">
    <FONT COLOR="#7B7B7B" FACE="Helvetica ">prekitting_completed</FONT>
    </TD><TD ALIGN="LEFT">
    <FONT COLOR="#7B7B7B" FACE="Helvetica ">BooleanField</FONT>
    </TD></TR>
  
    </TABLE>
    >]

  kioskui_models_RestockInventoryReportitems [label=<
    <TABLE BGCOLOR="palegoldenrod" BORDER="0" CELLBORDER="0" CELLSPACING="0">
    <TR><TD COLSPAN="2" CELLPADDING="4" ALIGN="CENTER" BGCOLOR="olivedrab4">
    <FONT FACE="Helvetica Bold" COLOR="white">
    RestockInventoryReportitems
    </FONT></TD></TR>
  
    <TR><TD ALIGN="LEFT" BORDER="0">
    <FONT FACE="Helvetica Bold">id</FONT>
    </TD><TD ALIGN="LEFT">
    <FONT FACE="Helvetica Bold">AutoField</FONT>
    </TD></TR>
  
    <TR><TD ALIGN="LEFT" BORDER="0">
    <FONT FACE="Helvetica Bold">report</FONT>
    </TD><TD ALIGN="LEFT">
    <FONT FACE="Helvetica Bold">ForeignKey (id)</FONT>
    </TD></TR>
  
    <TR><TD ALIGN="LEFT" BORDER="0">
    <FONT FACE="Helvetica ">categories</FONT>
    </TD><TD ALIGN="LEFT">
    <FONT FACE="Helvetica ">CharField</FONT>
    </TD></TR>
  
    <TR><TD ALIGN="LEFT" BORDER="0">
    <FONT FACE="Helvetica ">product_name</FONT>
    </TD><TD ALIGN="LEFT">
    <FONT FACE="Helvetica ">CharField</FONT>
    </TD></TR>
  
    <TR><TD ALIGN="LEFT" BORDER="0">
    <FONT FACE="Helvetica ">proposed_restock_quantity</FONT>
    </TD><TD ALIGN="LEFT">
    <FONT FACE="Helvetica ">IntegerField</FONT>
    </TD></TR>
  
    <TR><TD ALIGN="LEFT" BORDER="0">
    <FONT FACE="Helvetica ">upc</FONT>
    </TD><TD ALIGN="LEFT">
    <FONT FACE="Helvetica ">CharField</FONT>
    </TD></TR>
  
    </TABLE>
    >]




  django_contrib_admin_models_LogEntry [label=<
    <TABLE BGCOLOR="palegoldenrod" BORDER="0" CELLBORDER="0" CELLSPACING="0">
    <TR><TD COLSPAN="2" CELLPADDING="4" ALIGN="CENTER" BGCOLOR="olivedrab4">
    <FONT FACE="Helvetica Bold" COLOR="white">
    LogEntry
    </FONT></TD></TR>
  
    <TR><TD ALIGN="LEFT" BORDER="0">
    <FONT FACE="Helvetica Bold">id</FONT>
    </TD><TD ALIGN="LEFT">
    <FONT FACE="Helvetica Bold">AutoField</FONT>
    </TD></TR>
  
    <TR><TD ALIGN="LEFT" BORDER="0">
    <FONT COLOR="#7B7B7B" FACE="Helvetica Bold">content_type</FONT>
    </TD><TD ALIGN="LEFT">
    <FONT COLOR="#7B7B7B" FACE="Helvetica Bold">ForeignKey (id)</FONT>
    </TD></TR>
  
    <TR><TD ALIGN="LEFT" BORDER="0">
    <FONT FACE="Helvetica Bold">user</FONT>
    </TD><TD ALIGN="LEFT">
    <FONT FACE="Helvetica Bold">ForeignKey (id)</FONT>
    </TD></TR>
  
    <TR><TD ALIGN="LEFT" BORDER="0">
    <FONT FACE="Helvetica ">action_flag</FONT>
    </TD><TD ALIGN="LEFT">
    <FONT FACE="Helvetica ">PositiveSmallIntegerField</FONT>
    </TD></TR>
  
    <TR><TD ALIGN="LEFT" BORDER="0">
    <FONT COLOR="#7B7B7B" FACE="Helvetica ">action_time</FONT>
    </TD><TD ALIGN="LEFT">
    <FONT COLOR="#7B7B7B" FACE="Helvetica ">DateTimeField</FONT>
    </TD></TR>
  
    <TR><TD ALIGN="LEFT" BORDER="0">
    <FONT COLOR="#7B7B7B" FACE="Helvetica ">change_message</FONT>
    </TD><TD ALIGN="LEFT">
    <FONT COLOR="#7B7B7B" FACE="Helvetica ">TextField</FONT>
    </TD></TR>
  
    <TR><TD ALIGN="LEFT" BORDER="0">
    <FONT COLOR="#7B7B7B" FACE="Helvetica ">object_id</FONT>
    </TD><TD ALIGN="LEFT">
    <FONT COLOR="#7B7B7B" FACE="Helvetica ">TextField</FONT>
    </TD></TR>
  
    <TR><TD ALIGN="LEFT" BORDER="0">
    <FONT FACE="Helvetica ">object_repr</FONT>
    </TD><TD ALIGN="LEFT">
    <FONT FACE="Helvetica ">CharField</FONT>
    </TD></TR>
  
    </TABLE>
    >]




  django_contrib_auth_models_Permission [label=<
    <TABLE BGCOLOR="palegoldenrod" BORDER="0" CELLBORDER="0" CELLSPACING="0">
    <TR><TD COLSPAN="2" CELLPADDING="4" ALIGN="CENTER" BGCOLOR="olivedrab4">
    <FONT FACE="Helvetica Bold" COLOR="white">
    Permission
    </FONT></TD></TR>
  
    <TR><TD ALIGN="LEFT" BORDER="0">
    <FONT FACE="Helvetica Bold">id</FONT>
    </TD><TD ALIGN="LEFT">
    <FONT FACE="Helvetica Bold">AutoField</FONT>
    </TD></TR>
  
    <TR><TD ALIGN="LEFT" BORDER="0">
    <FONT FACE="Helvetica Bold">content_type</FONT>
    </TD><TD ALIGN="LEFT">
    <FONT FACE="Helvetica Bold">ForeignKey (id)</FONT>
    </TD></TR>
  
    <TR><TD ALIGN="LEFT" BORDER="0">
    <FONT FACE="Helvetica ">codename</FONT>
    </TD><TD ALIGN="LEFT">
    <FONT FACE="Helvetica ">CharField</FONT>
    </TD></TR>
  
    <TR><TD ALIGN="LEFT" BORDER="0">
    <FONT FACE="Helvetica ">name</FONT>
    </TD><TD ALIGN="LEFT">
    <FONT FACE="Helvetica ">CharField</FONT>
    </TD></TR>
  
    </TABLE>
    >]

  django_contrib_auth_models_Group [label=<
    <TABLE BGCOLOR="palegoldenrod" BORDER="0" CELLBORDER="0" CELLSPACING="0">
    <TR><TD COLSPAN="2" CELLPADDING="4" ALIGN="CENTER" BGCOLOR="olivedrab4">
    <FONT FACE="Helvetica Bold" COLOR="white">
    Group
    </FONT></TD></TR>
  
    <TR><TD ALIGN="LEFT" BORDER="0">
    <FONT FACE="Helvetica Bold">id</FONT>
    </TD><TD ALIGN="LEFT">
    <FONT FACE="Helvetica Bold">AutoField</FONT>
    </TD></TR>
  
    <TR><TD ALIGN="LEFT" BORDER="0">
    <FONT FACE="Helvetica ">name</FONT>
    </TD><TD ALIGN="LEFT">
    <FONT FACE="Helvetica ">CharField</FONT>
    </TD></TR>
  
    </TABLE>
    >]




  django_contrib_contenttypes_models_ContentType [label=<
    <TABLE BGCOLOR="palegoldenrod" BORDER="0" CELLBORDER="0" CELLSPACING="0">
    <TR><TD COLSPAN="2" CELLPADDING="4" ALIGN="CENTER" BGCOLOR="olivedrab4">
    <FONT FACE="Helvetica Bold" COLOR="white">
    ContentType
    </FONT></TD></TR>
  
    <TR><TD ALIGN="LEFT" BORDER="0">
    <FONT FACE="Helvetica Bold">id</FONT>
    </TD><TD ALIGN="LEFT">
    <FONT FACE="Helvetica Bold">AutoField</FONT>
    </TD></TR>
  
    <TR><TD ALIGN="LEFT" BORDER="0">
    <FONT FACE="Helvetica ">app_label</FONT>
    </TD><TD ALIGN="LEFT">
    <FONT FACE="Helvetica ">CharField</FONT>
    </TD></TR>
  
    <TR><TD ALIGN="LEFT" BORDER="0">
    <FONT FACE="Helvetica ">model</FONT>
    </TD><TD ALIGN="LEFT">
    <FONT FACE="Helvetica ">CharField</FONT>
    </TD></TR>
  
    <TR><TD ALIGN="LEFT" BORDER="0">
    <FONT FACE="Helvetica ">name</FONT>
    </TD><TD ALIGN="LEFT">
    <FONT FACE="Helvetica ">CharField</FONT>
    </TD></TR>
  
    </TABLE>
    >]




  django_contrib_sessions_models_Session [label=<
    <TABLE BGCOLOR="palegoldenrod" BORDER="0" CELLBORDER="0" CELLSPACING="0">
    <TR><TD COLSPAN="2" CELLPADDING="4" ALIGN="CENTER" BGCOLOR="olivedrab4">
    <FONT FACE="Helvetica Bold" COLOR="white">
    Session
    </FONT></TD></TR>
  
    <TR><TD ALIGN="LEFT" BORDER="0">
    <FONT FACE="Helvetica Bold">session_key</FONT>
    </TD><TD ALIGN="LEFT">
    <FONT FACE="Helvetica Bold">CharField</FONT>
    </TD></TR>
  
    <TR><TD ALIGN="LEFT" BORDER="0">
    <FONT FACE="Helvetica ">expire_date</FONT>
    </TD><TD ALIGN="LEFT">
    <FONT FACE="Helvetica ">DateTimeField</FONT>
    </TD></TR>
  
    <TR><TD ALIGN="LEFT" BORDER="0">
    <FONT FACE="Helvetica ">session_data</FONT>
    </TD><TD ALIGN="LEFT">
    <FONT FACE="Helvetica ">TextField</FONT>
    </TD></TR>
  
    </TABLE>
    >]




  shop_models_bases_BaseOrderItem [label=<
    <TABLE BGCOLOR="palegoldenrod" BORDER="0" CELLBORDER="0" CELLSPACING="0">
    <TR><TD COLSPAN="2" CELLPADDING="4" ALIGN="CENTER" BGCOLOR="olivedrab4">
    <FONT FACE="Helvetica Bold" COLOR="white">
    BaseOrderItem
    </FONT></TD></TR>
  
    <TR><TD ALIGN="LEFT" BORDER="0">
    <FONT FACE="Helvetica Bold">order</FONT>
    </TD><TD ALIGN="LEFT">
    <FONT FACE="Helvetica Bold">ForeignKey (id)</FONT>
    </TD></TR>
  
    <TR><TD ALIGN="LEFT" BORDER="0">
    <FONT COLOR="#7B7B7B" FACE="Helvetica Bold">product</FONT>
    </TD><TD ALIGN="LEFT">
    <FONT COLOR="#7B7B7B" FACE="Helvetica Bold">ForeignKey (id)</FONT>
    </TD></TR>
  
    <TR><TD ALIGN="LEFT" BORDER="0">
    <FONT FACE="Helvetica ">line_subtotal</FONT>
    </TD><TD ALIGN="LEFT">
    <FONT FACE="Helvetica ">CurrencyField</FONT>
    </TD></TR>
  
    <TR><TD ALIGN="LEFT" BORDER="0">
    <FONT FACE="Helvetica ">line_total</FONT>
    </TD><TD ALIGN="LEFT">
    <FONT FACE="Helvetica ">CurrencyField</FONT>
    </TD></TR>
  
    <TR><TD ALIGN="LEFT" BORDER="0">
    <FONT COLOR="#7B7B7B" FACE="Helvetica ">product_name</FONT>
    </TD><TD ALIGN="LEFT">
    <FONT COLOR="#7B7B7B" FACE="Helvetica ">CharField</FONT>
    </TD></TR>
  
    <TR><TD ALIGN="LEFT" BORDER="0">
    <FONT FACE="Helvetica ">product_reference</FONT>
    </TD><TD ALIGN="LEFT">
    <FONT FACE="Helvetica ">CharField</FONT>
    </TD></TR>
  
    <TR><TD ALIGN="LEFT" BORDER="0">
    <FONT FACE="Helvetica ">quantity</FONT>
    </TD><TD ALIGN="LEFT">
    <FONT FACE="Helvetica ">IntegerField</FONT>
    </TD></TR>
  
    <TR><TD ALIGN="LEFT" BORDER="0">
    <FONT FACE="Helvetica ">unit_price</FONT>
    </TD><TD ALIGN="LEFT">
    <FONT FACE="Helvetica ">CurrencyField</FONT>
    </TD></TR>
  
    </TABLE>
    >]

  shop_models_bases_BaseCartItem [label=<
    <TABLE BGCOLOR="palegoldenrod" BORDER="0" CELLBORDER="0" CELLSPACING="0">
    <TR><TD COLSPAN="2" CELLPADDING="4" ALIGN="CENTER" BGCOLOR="olivedrab4">
    <FONT FACE="Helvetica Bold" COLOR="white">
    BaseCartItem
    </FONT></TD></TR>
  
    <TR><TD ALIGN="LEFT" BORDER="0">
    <FONT FACE="Helvetica Bold">cart</FONT>
    </TD><TD ALIGN="LEFT">
    <FONT FACE="Helvetica Bold">ForeignKey (id)</FONT>
    </TD></TR>
  
    <TR><TD ALIGN="LEFT" BORDER="0">
    <FONT FACE="Helvetica Bold">product</FONT>
    </TD><TD ALIGN="LEFT">
    <FONT FACE="Helvetica Bold">ForeignKey (id)</FONT>
    </TD></TR>
  
    <TR><TD ALIGN="LEFT" BORDER="0">
    <FONT FACE="Helvetica ">quantity</FONT>
    </TD><TD ALIGN="LEFT">
    <FONT FACE="Helvetica ">IntegerField</FONT>
    </TD></TR>
  
    </TABLE>
    >]

  shop_models_bases_BaseOrder [label=<
    <TABLE BGCOLOR="palegoldenrod" BORDER="0" CELLBORDER="0" CELLSPACING="0">
    <TR><TD COLSPAN="2" CELLPADDING="4" ALIGN="CENTER" BGCOLOR="olivedrab4">
    <FONT FACE="Helvetica Bold" COLOR="white">
    BaseOrder
    </FONT></TD></TR>
  
    <TR><TD ALIGN="LEFT" BORDER="0">
    <FONT COLOR="#7B7B7B" FACE="Helvetica Bold">user</FONT>
    </TD><TD ALIGN="LEFT">
    <FONT COLOR="#7B7B7B" FACE="Helvetica Bold">ForeignKey (id)</FONT>
    </TD></TR>
  
    <TR><TD ALIGN="LEFT" BORDER="0">
    <FONT COLOR="#7B7B7B" FACE="Helvetica ">billing_address_text</FONT>
    </TD><TD ALIGN="LEFT">
    <FONT COLOR="#7B7B7B" FACE="Helvetica ">TextField</FONT>
    </TD></TR>
  
    <TR><TD ALIGN="LEFT" BORDER="0">
    <FONT COLOR="#7B7B7B" FACE="Helvetica ">cart_pk</FONT>
    </TD><TD ALIGN="LEFT">
    <FONT COLOR="#7B7B7B" FACE="Helvetica ">PositiveIntegerField</FONT>
    </TD></TR>
  
    <TR><TD ALIGN="LEFT" BORDER="0">
    <FONT COLOR="#7B7B7B" FACE="Helvetica ">created</FONT>
    </TD><TD ALIGN="LEFT">
    <FONT COLOR="#7B7B7B" FACE="Helvetica ">DateTimeField</FONT>
    </TD></TR>
  
    <TR><TD ALIGN="LEFT" BORDER="0">
    <FONT COLOR="#7B7B7B" FACE="Helvetica ">modified</FONT>
    </TD><TD ALIGN="LEFT">
    <FONT COLOR="#7B7B7B" FACE="Helvetica ">DateTimeField</FONT>
    </TD></TR>
  
    <TR><TD ALIGN="LEFT" BORDER="0">
    <FONT FACE="Helvetica ">order_subtotal</FONT>
    </TD><TD ALIGN="LEFT">
    <FONT FACE="Helvetica ">CurrencyField</FONT>
    </TD></TR>
  
    <TR><TD ALIGN="LEFT" BORDER="0">
    <FONT FACE="Helvetica ">order_total</FONT>
    </TD><TD ALIGN="LEFT">
    <FONT FACE="Helvetica ">CurrencyField</FONT>
    </TD></TR>
  
    <TR><TD ALIGN="LEFT" BORDER="0">
    <FONT COLOR="#7B7B7B" FACE="Helvetica ">shipping_address_text</FONT>
    </TD><TD ALIGN="LEFT">
    <FONT COLOR="#7B7B7B" FACE="Helvetica ">TextField</FONT>
    </TD></TR>
  
    <TR><TD ALIGN="LEFT" BORDER="0">
    <FONT FACE="Helvetica ">status</FONT>
    </TD><TD ALIGN="LEFT">
    <FONT FACE="Helvetica ">IntegerField</FONT>
    </TD></TR>
  
    </TABLE>
    >]

  shop_models_bases_BaseCart [label=<
    <TABLE BGCOLOR="palegoldenrod" BORDER="0" CELLBORDER="0" CELLSPACING="0">
    <TR><TD COLSPAN="2" CELLPADDING="4" ALIGN="CENTER" BGCOLOR="olivedrab4">
    <FONT FACE="Helvetica Bold" COLOR="white">
    BaseCart
    </FONT></TD></TR>
  
    <TR><TD ALIGN="LEFT" BORDER="0">
    <FONT COLOR="#7B7B7B" FACE="Helvetica Bold">user</FONT>
    </TD><TD ALIGN="LEFT">
    <FONT COLOR="#7B7B7B" FACE="Helvetica Bold">OneToOneField (id)</FONT>
    </TD></TR>
  
    <TR><TD ALIGN="LEFT" BORDER="0">
    <FONT COLOR="#7B7B7B" FACE="Helvetica ">date_created</FONT>
    </TD><TD ALIGN="LEFT">
    <FONT COLOR="#7B7B7B" FACE="Helvetica ">DateTimeField</FONT>
    </TD></TR>
  
    <TR><TD ALIGN="LEFT" BORDER="0">
    <FONT COLOR="#7B7B7B" FACE="Helvetica ">last_updated</FONT>
    </TD><TD ALIGN="LEFT">
    <FONT COLOR="#7B7B7B" FACE="Helvetica ">DateTimeField</FONT>
    </TD></TR>
  
    </TABLE>
    >]

  shop_models_bases_BaseProduct [label=<
    <TABLE BGCOLOR="palegoldenrod" BORDER="0" CELLBORDER="0" CELLSPACING="0">
    <TR><TD COLSPAN="2" CELLPADDING="4" ALIGN="CENTER" BGCOLOR="olivedrab4">
    <FONT FACE="Helvetica Bold" COLOR="white">
    BaseProduct<BR/>&lt;<FONT FACE="Helvetica Italic">PolymorphicModel</FONT>&gt;
    </FONT></TD></TR>
  
    <TR><TD ALIGN="LEFT" BORDER="0">
    <FONT FACE="Helvetica ItalicBold">polymorphic_ctype</FONT>
    </TD><TD ALIGN="LEFT">
    <FONT FACE="Helvetica ItalicBold">ForeignKey (id)</FONT>
    </TD></TR>
  
    <TR><TD ALIGN="LEFT" BORDER="0">
    <FONT COLOR="#7B7B7B" FACE="Helvetica ">active</FONT>
    </TD><TD ALIGN="LEFT">
    <FONT COLOR="#7B7B7B" FACE="Helvetica ">BooleanField</FONT>
    </TD></TR>
  
    <TR><TD ALIGN="LEFT" BORDER="0">
    <FONT COLOR="#7B7B7B" FACE="Helvetica ">date_added</FONT>
    </TD><TD ALIGN="LEFT">
    <FONT COLOR="#7B7B7B" FACE="Helvetica ">DateTimeField</FONT>
    </TD></TR>
  
    <TR><TD ALIGN="LEFT" BORDER="0">
    <FONT COLOR="#7B7B7B" FACE="Helvetica ">last_modified</FONT>
    </TD><TD ALIGN="LEFT">
    <FONT COLOR="#7B7B7B" FACE="Helvetica ">DateTimeField</FONT>
    </TD></TR>
  
    <TR><TD ALIGN="LEFT" BORDER="0">
    <FONT FACE="Helvetica ">name</FONT>
    </TD><TD ALIGN="LEFT">
    <FONT FACE="Helvetica ">CharField</FONT>
    </TD></TR>
  
    <TR><TD ALIGN="LEFT" BORDER="0">
    <FONT FACE="Helvetica ">slug</FONT>
    </TD><TD ALIGN="LEFT">
    <FONT FACE="Helvetica ">SlugField</FONT>
    </TD></TR>
  
    <TR><TD ALIGN="LEFT" BORDER="0">
    <FONT FACE="Helvetica ">unit_price</FONT>
    </TD><TD ALIGN="LEFT">
    <FONT FACE="Helvetica ">CurrencyField</FONT>
    </TD></TR>
  
    </TABLE>
    >]

  shop_models_defaults_cart_Cart [label=<
    <TABLE BGCOLOR="palegoldenrod" BORDER="0" CELLBORDER="0" CELLSPACING="0">
    <TR><TD COLSPAN="2" CELLPADDING="4" ALIGN="CENTER" BGCOLOR="olivedrab4">
    <FONT FACE="Helvetica Bold" COLOR="white">
    Cart<BR/>&lt;<FONT FACE="Helvetica Italic">BaseCart</FONT>&gt;
    </FONT></TD></TR>
  
    <TR><TD ALIGN="LEFT" BORDER="0">
    <FONT FACE="Helvetica Bold">id</FONT>
    </TD><TD ALIGN="LEFT">
    <FONT FACE="Helvetica Bold">AutoField</FONT>
    </TD></TR>
  
    <TR><TD ALIGN="LEFT" BORDER="0">
    <FONT COLOR="#7B7B7B" FACE="Helvetica ItalicBold">user</FONT>
    </TD><TD ALIGN="LEFT">
    <FONT COLOR="#7B7B7B" FACE="Helvetica ItalicBold">OneToOneField (id)</FONT>
    </TD></TR>
  
    <TR><TD ALIGN="LEFT" BORDER="0">
    <FONT COLOR="#7B7B7B" FACE="Helvetica Italic">date_created</FONT>
    </TD><TD ALIGN="LEFT">
    <FONT COLOR="#7B7B7B" FACE="Helvetica Italic">DateTimeField</FONT>
    </TD></TR>
  
    <TR><TD ALIGN="LEFT" BORDER="0">
    <FONT COLOR="#7B7B7B" FACE="Helvetica Italic">last_updated</FONT>
    </TD><TD ALIGN="LEFT">
    <FONT COLOR="#7B7B7B" FACE="Helvetica Italic">DateTimeField</FONT>
    </TD></TR>
  
    </TABLE>
    >]

  shop_models_defaults_cartitem_CartItem [label=<
    <TABLE BGCOLOR="palegoldenrod" BORDER="0" CELLBORDER="0" CELLSPACING="0">
    <TR><TD COLSPAN="2" CELLPADDING="4" ALIGN="CENTER" BGCOLOR="olivedrab4">
    <FONT FACE="Helvetica Bold" COLOR="white">
    CartItem<BR/>&lt;<FONT FACE="Helvetica Italic">BaseCartItem</FONT>&gt;
    </FONT></TD></TR>
  
    <TR><TD ALIGN="LEFT" BORDER="0">
    <FONT FACE="Helvetica Bold">id</FONT>
    </TD><TD ALIGN="LEFT">
    <FONT FACE="Helvetica Bold">AutoField</FONT>
    </TD></TR>
  
    <TR><TD ALIGN="LEFT" BORDER="0">
    <FONT FACE="Helvetica ItalicBold">cart</FONT>
    </TD><TD ALIGN="LEFT">
    <FONT FACE="Helvetica ItalicBold">ForeignKey (id)</FONT>
    </TD></TR>
  
    <TR><TD ALIGN="LEFT" BORDER="0">
    <FONT FACE="Helvetica ItalicBold">product</FONT>
    </TD><TD ALIGN="LEFT">
    <FONT FACE="Helvetica ItalicBold">ForeignKey (id)</FONT>
    </TD></TR>
  
    <TR><TD ALIGN="LEFT" BORDER="0">
    <FONT FACE="Helvetica Italic">quantity</FONT>
    </TD><TD ALIGN="LEFT">
    <FONT FACE="Helvetica Italic">IntegerField</FONT>
    </TD></TR>
  
    </TABLE>
    >]

  shop_models_defaults_product_Product [label=<
    <TABLE BGCOLOR="palegoldenrod" BORDER="0" CELLBORDER="0" CELLSPACING="0">
    <TR><TD COLSPAN="2" CELLPADDING="4" ALIGN="CENTER" BGCOLOR="olivedrab4">
    <FONT FACE="Helvetica Bold" COLOR="white">
    Product<BR/>&lt;<FONT FACE="Helvetica Italic">BaseProduct</FONT>&gt;
    </FONT></TD></TR>
  
    <TR><TD ALIGN="LEFT" BORDER="0">
    <FONT FACE="Helvetica Bold">id</FONT>
    </TD><TD ALIGN="LEFT">
    <FONT FACE="Helvetica Bold">AutoField</FONT>
    </TD></TR>
  
    <TR><TD ALIGN="LEFT" BORDER="0">
    <FONT FACE="Helvetica ItalicBold">polymorphic_ctype</FONT>
    </TD><TD ALIGN="LEFT">
    <FONT FACE="Helvetica ItalicBold">ForeignKey (id)</FONT>
    </TD></TR>
  
    <TR><TD ALIGN="LEFT" BORDER="0">
    <FONT COLOR="#7B7B7B" FACE="Helvetica Italic">active</FONT>
    </TD><TD ALIGN="LEFT">
    <FONT COLOR="#7B7B7B" FACE="Helvetica Italic">BooleanField</FONT>
    </TD></TR>
  
    <TR><TD ALIGN="LEFT" BORDER="0">
    <FONT COLOR="#7B7B7B" FACE="Helvetica Italic">date_added</FONT>
    </TD><TD ALIGN="LEFT">
    <FONT COLOR="#7B7B7B" FACE="Helvetica Italic">DateTimeField</FONT>
    </TD></TR>
  
    <TR><TD ALIGN="LEFT" BORDER="0">
    <FONT COLOR="#7B7B7B" FACE="Helvetica Italic">last_modified</FONT>
    </TD><TD ALIGN="LEFT">
    <FONT COLOR="#7B7B7B" FACE="Helvetica Italic">DateTimeField</FONT>
    </TD></TR>
  
    <TR><TD ALIGN="LEFT" BORDER="0">
    <FONT FACE="Helvetica Italic">name</FONT>
    </TD><TD ALIGN="LEFT">
    <FONT FACE="Helvetica Italic">CharField</FONT>
    </TD></TR>
  
    <TR><TD ALIGN="LEFT" BORDER="0">
    <FONT FACE="Helvetica Italic">slug</FONT>
    </TD><TD ALIGN="LEFT">
    <FONT FACE="Helvetica Italic">SlugField</FONT>
    </TD></TR>
  
    <TR><TD ALIGN="LEFT" BORDER="0">
    <FONT FACE="Helvetica Italic">unit_price</FONT>
    </TD><TD ALIGN="LEFT">
    <FONT FACE="Helvetica Italic">CurrencyField</FONT>
    </TD></TR>
  
    </TABLE>
    >]

  shop_models_defaults_order_Order [label=<
    <TABLE BGCOLOR="palegoldenrod" BORDER="0" CELLBORDER="0" CELLSPACING="0">
    <TR><TD COLSPAN="2" CELLPADDING="4" ALIGN="CENTER" BGCOLOR="olivedrab4">
    <FONT FACE="Helvetica Bold" COLOR="white">
    Order<BR/>&lt;<FONT FACE="Helvetica Italic">BaseOrder</FONT>&gt;
    </FONT></TD></TR>
  
    <TR><TD ALIGN="LEFT" BORDER="0">
    <FONT FACE="Helvetica Bold">id</FONT>
    </TD><TD ALIGN="LEFT">
    <FONT FACE="Helvetica Bold">AutoField</FONT>
    </TD></TR>
  
    <TR><TD ALIGN="LEFT" BORDER="0">
    <FONT COLOR="#7B7B7B" FACE="Helvetica ItalicBold">user</FONT>
    </TD><TD ALIGN="LEFT">
    <FONT COLOR="#7B7B7B" FACE="Helvetica ItalicBold">ForeignKey (id)</FONT>
    </TD></TR>
  
    <TR><TD ALIGN="LEFT" BORDER="0">
    <FONT COLOR="#7B7B7B" FACE="Helvetica Italic">billing_address_text</FONT>
    </TD><TD ALIGN="LEFT">
    <FONT COLOR="#7B7B7B" FACE="Helvetica Italic">TextField</FONT>
    </TD></TR>
  
    <TR><TD ALIGN="LEFT" BORDER="0">
    <FONT COLOR="#7B7B7B" FACE="Helvetica Italic">cart_pk</FONT>
    </TD><TD ALIGN="LEFT">
    <FONT COLOR="#7B7B7B" FACE="Helvetica Italic">PositiveIntegerField</FONT>
    </TD></TR>
  
    <TR><TD ALIGN="LEFT" BORDER="0">
    <FONT COLOR="#7B7B7B" FACE="Helvetica Italic">created</FONT>
    </TD><TD ALIGN="LEFT">
    <FONT COLOR="#7B7B7B" FACE="Helvetica Italic">DateTimeField</FONT>
    </TD></TR>
  
    <TR><TD ALIGN="LEFT" BORDER="0">
    <FONT COLOR="#7B7B7B" FACE="Helvetica Italic">modified</FONT>
    </TD><TD ALIGN="LEFT">
    <FONT COLOR="#7B7B7B" FACE="Helvetica Italic">DateTimeField</FONT>
    </TD></TR>
  
    <TR><TD ALIGN="LEFT" BORDER="0">
    <FONT FACE="Helvetica Italic">order_subtotal</FONT>
    </TD><TD ALIGN="LEFT">
    <FONT FACE="Helvetica Italic">CurrencyField</FONT>
    </TD></TR>
  
    <TR><TD ALIGN="LEFT" BORDER="0">
    <FONT FACE="Helvetica Italic">order_total</FONT>
    </TD><TD ALIGN="LEFT">
    <FONT FACE="Helvetica Italic">CurrencyField</FONT>
    </TD></TR>
  
    <TR><TD ALIGN="LEFT" BORDER="0">
    <FONT COLOR="#7B7B7B" FACE="Helvetica Italic">shipping_address_text</FONT>
    </TD><TD ALIGN="LEFT">
    <FONT COLOR="#7B7B7B" FACE="Helvetica Italic">TextField</FONT>
    </TD></TR>
  
    <TR><TD ALIGN="LEFT" BORDER="0">
    <FONT FACE="Helvetica Italic">status</FONT>
    </TD><TD ALIGN="LEFT">
    <FONT FACE="Helvetica Italic">IntegerField</FONT>
    </TD></TR>
  
    </TABLE>
    >]

  shop_models_defaults_orderitem_OrderItem [label=<
    <TABLE BGCOLOR="palegoldenrod" BORDER="0" CELLBORDER="0" CELLSPACING="0">
    <TR><TD COLSPAN="2" CELLPADDING="4" ALIGN="CENTER" BGCOLOR="olivedrab4">
    <FONT FACE="Helvetica Bold" COLOR="white">
    OrderItem<BR/>&lt;<FONT FACE="Helvetica Italic">BaseOrderItem</FONT>&gt;
    </FONT></TD></TR>
  
    <TR><TD ALIGN="LEFT" BORDER="0">
    <FONT FACE="Helvetica Bold">id</FONT>
    </TD><TD ALIGN="LEFT">
    <FONT FACE="Helvetica Bold">AutoField</FONT>
    </TD></TR>
  
    <TR><TD ALIGN="LEFT" BORDER="0">
    <FONT FACE="Helvetica ItalicBold">order</FONT>
    </TD><TD ALIGN="LEFT">
    <FONT FACE="Helvetica ItalicBold">ForeignKey (id)</FONT>
    </TD></TR>
  
    <TR><TD ALIGN="LEFT" BORDER="0">
    <FONT COLOR="#7B7B7B" FACE="Helvetica ItalicBold">product</FONT>
    </TD><TD ALIGN="LEFT">
    <FONT COLOR="#7B7B7B" FACE="Helvetica ItalicBold">ForeignKey (id)</FONT>
    </TD></TR>
  
    <TR><TD ALIGN="LEFT" BORDER="0">
    <FONT FACE="Helvetica Italic">line_subtotal</FONT>
    </TD><TD ALIGN="LEFT">
    <FONT FACE="Helvetica Italic">CurrencyField</FONT>
    </TD></TR>
  
    <TR><TD ALIGN="LEFT" BORDER="0">
    <FONT FACE="Helvetica Italic">line_total</FONT>
    </TD><TD ALIGN="LEFT">
    <FONT FACE="Helvetica Italic">CurrencyField</FONT>
    </TD></TR>
  
    <TR><TD ALIGN="LEFT" BORDER="0">
    <FONT COLOR="#7B7B7B" FACE="Helvetica Italic">product_name</FONT>
    </TD><TD ALIGN="LEFT">
    <FONT COLOR="#7B7B7B" FACE="Helvetica Italic">CharField</FONT>
    </TD></TR>
  
    <TR><TD ALIGN="LEFT" BORDER="0">
    <FONT FACE="Helvetica Italic">product_reference</FONT>
    </TD><TD ALIGN="LEFT">
    <FONT FACE="Helvetica Italic">CharField</FONT>
    </TD></TR>
  
    <TR><TD ALIGN="LEFT" BORDER="0">
    <FONT FACE="Helvetica Italic">quantity</FONT>
    </TD><TD ALIGN="LEFT">
    <FONT FACE="Helvetica Italic">IntegerField</FONT>
    </TD></TR>
  
    <TR><TD ALIGN="LEFT" BORDER="0">
    <FONT FACE="Helvetica Italic">unit_price</FONT>
    </TD><TD ALIGN="LEFT">
    <FONT FACE="Helvetica Italic">CurrencyField</FONT>
    </TD></TR>
  
    </TABLE>
    >]

  shop_models_ordermodel_OrderExtraInfo [label=<
    <TABLE BGCOLOR="palegoldenrod" BORDER="0" CELLBORDER="0" CELLSPACING="0">
    <TR><TD COLSPAN="2" CELLPADDING="4" ALIGN="CENTER" BGCOLOR="olivedrab4">
    <FONT FACE="Helvetica Bold" COLOR="white">
    OrderExtraInfo
    </FONT></TD></TR>
  
    <TR><TD ALIGN="LEFT" BORDER="0">
    <FONT FACE="Helvetica Bold">id</FONT>
    </TD><TD ALIGN="LEFT">
    <FONT FACE="Helvetica Bold">AutoField</FONT>
    </TD></TR>
  
    <TR><TD ALIGN="LEFT" BORDER="0">
    <FONT FACE="Helvetica Bold">order</FONT>
    </TD><TD ALIGN="LEFT">
    <FONT FACE="Helvetica Bold">ForeignKey (id)</FONT>
    </TD></TR>
  
    <TR><TD ALIGN="LEFT" BORDER="0">
    <FONT COLOR="#7B7B7B" FACE="Helvetica ">text</FONT>
    </TD><TD ALIGN="LEFT">
    <FONT COLOR="#7B7B7B" FACE="Helvetica ">TextField</FONT>
    </TD></TR>
  
    </TABLE>
    >]

  shop_models_ordermodel_ExtraOrderPriceField [label=<
    <TABLE BGCOLOR="palegoldenrod" BORDER="0" CELLBORDER="0" CELLSPACING="0">
    <TR><TD COLSPAN="2" CELLPADDING="4" ALIGN="CENTER" BGCOLOR="olivedrab4">
    <FONT FACE="Helvetica Bold" COLOR="white">
    ExtraOrderPriceField
    </FONT></TD></TR>
  
    <TR><TD ALIGN="LEFT" BORDER="0">
    <FONT FACE="Helvetica Bold">id</FONT>
    </TD><TD ALIGN="LEFT">
    <FONT FACE="Helvetica Bold">AutoField</FONT>
    </TD></TR>
  
    <TR><TD ALIGN="LEFT" BORDER="0">
    <FONT FACE="Helvetica Bold">order</FONT>
    </TD><TD ALIGN="LEFT">
    <FONT FACE="Helvetica Bold">ForeignKey (id)</FONT>
    </TD></TR>
  
    <TR><TD ALIGN="LEFT" BORDER="0">
    <FONT COLOR="#7B7B7B" FACE="Helvetica ">data</FONT>
    </TD><TD ALIGN="LEFT">
    <FONT COLOR="#7B7B7B" FACE="Helvetica ">JSONField</FONT>
    </TD></TR>
  
    <TR><TD ALIGN="LEFT" BORDER="0">
    <FONT COLOR="#7B7B7B" FACE="Helvetica ">is_shipping</FONT>
    </TD><TD ALIGN="LEFT">
    <FONT COLOR="#7B7B7B" FACE="Helvetica ">BooleanField</FONT>
    </TD></TR>
  
    <TR><TD ALIGN="LEFT" BORDER="0">
    <FONT FACE="Helvetica ">label</FONT>
    </TD><TD ALIGN="LEFT">
    <FONT FACE="Helvetica ">CharField</FONT>
    </TD></TR>
  
    <TR><TD ALIGN="LEFT" BORDER="0">
    <FONT FACE="Helvetica ">value</FONT>
    </TD><TD ALIGN="LEFT">
    <FONT FACE="Helvetica ">CurrencyField</FONT>
    </TD></TR>
  
    </TABLE>
    >]

  shop_models_ordermodel_ExtraOrderItemPriceField [label=<
    <TABLE BGCOLOR="palegoldenrod" BORDER="0" CELLBORDER="0" CELLSPACING="0">
    <TR><TD COLSPAN="2" CELLPADDING="4" ALIGN="CENTER" BGCOLOR="olivedrab4">
    <FONT FACE="Helvetica Bold" COLOR="white">
    ExtraOrderItemPriceField
    </FONT></TD></TR>
  
    <TR><TD ALIGN="LEFT" BORDER="0">
    <FONT FACE="Helvetica Bold">id</FONT>
    </TD><TD ALIGN="LEFT">
    <FONT FACE="Helvetica Bold">AutoField</FONT>
    </TD></TR>
  
    <TR><TD ALIGN="LEFT" BORDER="0">
    <FONT FACE="Helvetica Bold">order_item</FONT>
    </TD><TD ALIGN="LEFT">
    <FONT FACE="Helvetica Bold">ForeignKey (id)</FONT>
    </TD></TR>
  
    <TR><TD ALIGN="LEFT" BORDER="0">
    <FONT COLOR="#7B7B7B" FACE="Helvetica ">data</FONT>
    </TD><TD ALIGN="LEFT">
    <FONT COLOR="#7B7B7B" FACE="Helvetica ">JSONField</FONT>
    </TD></TR>
  
    <TR><TD ALIGN="LEFT" BORDER="0">
    <FONT FACE="Helvetica ">label</FONT>
    </TD><TD ALIGN="LEFT">
    <FONT FACE="Helvetica ">CharField</FONT>
    </TD></TR>
  
    <TR><TD ALIGN="LEFT" BORDER="0">
    <FONT FACE="Helvetica ">value</FONT>
    </TD><TD ALIGN="LEFT">
    <FONT FACE="Helvetica ">CurrencyField</FONT>
    </TD></TR>
  
    </TABLE>
    >]

  shop_models_ordermodel_OrderPayment [label=<
    <TABLE BGCOLOR="palegoldenrod" BORDER="0" CELLBORDER="0" CELLSPACING="0">
    <TR><TD COLSPAN="2" CELLPADDING="4" ALIGN="CENTER" BGCOLOR="olivedrab4">
    <FONT FACE="Helvetica Bold" COLOR="white">
    OrderPayment
    </FONT></TD></TR>
  
    <TR><TD ALIGN="LEFT" BORDER="0">
    <FONT FACE="Helvetica Bold">id</FONT>
    </TD><TD ALIGN="LEFT">
    <FONT FACE="Helvetica Bold">AutoField</FONT>
    </TD></TR>
  
    <TR><TD ALIGN="LEFT" BORDER="0">
    <FONT FACE="Helvetica Bold">order</FONT>
    </TD><TD ALIGN="LEFT">
    <FONT FACE="Helvetica Bold">ForeignKey (id)</FONT>
    </TD></TR>
  
    <TR><TD ALIGN="LEFT" BORDER="0">
    <FONT FACE="Helvetica ">amount</FONT>
    </TD><TD ALIGN="LEFT">
    <FONT FACE="Helvetica ">CurrencyField</FONT>
    </TD></TR>
  
    <TR><TD ALIGN="LEFT" BORDER="0">
    <FONT FACE="Helvetica ">payment_method</FONT>
    </TD><TD ALIGN="LEFT">
    <FONT FACE="Helvetica ">CharField</FONT>
    </TD></TR>
  
    <TR><TD ALIGN="LEFT" BORDER="0">
    <FONT FACE="Helvetica ">transaction_id</FONT>
    </TD><TD ALIGN="LEFT">
    <FONT FACE="Helvetica ">CharField</FONT>
    </TD></TR>
  
    </TABLE>
    >]




  south_models_MigrationHistory [label=<
    <TABLE BGCOLOR="palegoldenrod" BORDER="0" CELLBORDER="0" CELLSPACING="0">
    <TR><TD COLSPAN="2" CELLPADDING="4" ALIGN="CENTER" BGCOLOR="olivedrab4">
    <FONT FACE="Helvetica Bold" COLOR="white">
    MigrationHistory
    </FONT></TD></TR>
  
    <TR><TD ALIGN="LEFT" BORDER="0">
    <FONT FACE="Helvetica Bold">id</FONT>
    </TD><TD ALIGN="LEFT">
    <FONT FACE="Helvetica Bold">AutoField</FONT>
    </TD></TR>
  
    <TR><TD ALIGN="LEFT" BORDER="0">
    <FONT FACE="Helvetica ">app_name</FONT>
    </TD><TD ALIGN="LEFT">
    <FONT FACE="Helvetica ">CharField</FONT>
    </TD></TR>
  
    <TR><TD ALIGN="LEFT" BORDER="0">
    <FONT COLOR="#7B7B7B" FACE="Helvetica ">applied</FONT>
    </TD><TD ALIGN="LEFT">
    <FONT COLOR="#7B7B7B" FACE="Helvetica ">DateTimeField</FONT>
    </TD></TR>
  
    <TR><TD ALIGN="LEFT" BORDER="0">
    <FONT FACE="Helvetica ">migration</FONT>
    </TD><TD ALIGN="LEFT">
    <FONT FACE="Helvetica ">CharField</FONT>
    </TD></TR>
  
    </TABLE>
    >]




  shop_addressmodel_models_Country [label=<
    <TABLE BGCOLOR="palegoldenrod" BORDER="0" CELLBORDER="0" CELLSPACING="0">
    <TR><TD COLSPAN="2" CELLPADDING="4" ALIGN="CENTER" BGCOLOR="olivedrab4">
    <FONT FACE="Helvetica Bold" COLOR="white">
    Country
    </FONT></TD></TR>
  
    <TR><TD ALIGN="LEFT" BORDER="0">
    <FONT FACE="Helvetica Bold">id</FONT>
    </TD><TD ALIGN="LEFT">
    <FONT FACE="Helvetica Bold">AutoField</FONT>
    </TD></TR>
  
    <TR><TD ALIGN="LEFT" BORDER="0">
    <FONT FACE="Helvetica ">name</FONT>
    </TD><TD ALIGN="LEFT">
    <FONT FACE="Helvetica ">CharField</FONT>
    </TD></TR>
  
    </TABLE>
    >]

  shop_addressmodel_models_Address [label=<
    <TABLE BGCOLOR="palegoldenrod" BORDER="0" CELLBORDER="0" CELLSPACING="0">
    <TR><TD COLSPAN="2" CELLPADDING="4" ALIGN="CENTER" BGCOLOR="olivedrab4">
    <FONT FACE="Helvetica Bold" COLOR="white">
    Address
    </FONT></TD></TR>
  
    <TR><TD ALIGN="LEFT" BORDER="0">
    <FONT FACE="Helvetica Bold">id</FONT>
    </TD><TD ALIGN="LEFT">
    <FONT FACE="Helvetica Bold">AutoField</FONT>
    </TD></TR>
  
    <TR><TD ALIGN="LEFT" BORDER="0">
    <FONT COLOR="#7B7B7B" FACE="Helvetica Bold">country</FONT>
    </TD><TD ALIGN="LEFT">
    <FONT COLOR="#7B7B7B" FACE="Helvetica Bold">ForeignKey (id)</FONT>
    </TD></TR>
  
    <TR><TD ALIGN="LEFT" BORDER="0">
    <FONT COLOR="#7B7B7B" FACE="Helvetica Bold">user_billing</FONT>
    </TD><TD ALIGN="LEFT">
    <FONT COLOR="#7B7B7B" FACE="Helvetica Bold">OneToOneField (id)</FONT>
    </TD></TR>
  
    <TR><TD ALIGN="LEFT" BORDER="0">
    <FONT COLOR="#7B7B7B" FACE="Helvetica Bold">user_shipping</FONT>
    </TD><TD ALIGN="LEFT">
    <FONT COLOR="#7B7B7B" FACE="Helvetica Bold">OneToOneField (id)</FONT>
    </TD></TR>
  
    <TR><TD ALIGN="LEFT" BORDER="0">
    <FONT FACE="Helvetica ">address</FONT>
    </TD><TD ALIGN="LEFT">
    <FONT FACE="Helvetica ">CharField</FONT>
    </TD></TR>
  
    <TR><TD ALIGN="LEFT" BORDER="0">
    <FONT COLOR="#7B7B7B" FACE="Helvetica ">address2</FONT>
    </TD><TD ALIGN="LEFT">
    <FONT COLOR="#7B7B7B" FACE="Helvetica ">CharField</FONT>
    </TD></TR>
  
    <TR><TD ALIGN="LEFT" BORDER="0">
    <FONT FACE="Helvetica ">city</FONT>
    </TD><TD ALIGN="LEFT">
    <FONT FACE="Helvetica ">CharField</FONT>
    </TD></TR>
  
    <TR><TD ALIGN="LEFT" BORDER="0">
    <FONT FACE="Helvetica ">name</FONT>
    </TD><TD ALIGN="LEFT">
    <FONT FACE="Helvetica ">CharField</FONT>
    </TD></TR>
  
    <TR><TD ALIGN="LEFT" BORDER="0">
    <FONT FACE="Helvetica ">state</FONT>
    </TD><TD ALIGN="LEFT">
    <FONT FACE="Helvetica ">CharField</FONT>
    </TD></TR>
  
    <TR><TD ALIGN="LEFT" BORDER="0">
    <FONT FACE="Helvetica ">zip_code</FONT>
    </TD><TD ALIGN="LEFT">
    <FONT FACE="Helvetica ">CharField</FONT>
    </TD></TR>
  
    </TABLE>
    >]




  shop_simplecategories_models_Category [label=<
    <TABLE BGCOLOR="palegoldenrod" BORDER="0" CELLBORDER="0" CELLSPACING="0">
    <TR><TD COLSPAN="2" CELLPADDING="4" ALIGN="CENTER" BGCOLOR="olivedrab4">
    <FONT FACE="Helvetica Bold" COLOR="white">
    Category
    </FONT></TD></TR>
  
    <TR><TD ALIGN="LEFT" BORDER="0">
    <FONT FACE="Helvetica Bold">id</FONT>
    </TD><TD ALIGN="LEFT">
    <FONT FACE="Helvetica Bold">AutoField</FONT>
    </TD></TR>
  
    <TR><TD ALIGN="LEFT" BORDER="0">
    <FONT COLOR="#7B7B7B" FACE="Helvetica Bold">parent_category</FONT>
    </TD><TD ALIGN="LEFT">
    <FONT COLOR="#7B7B7B" FACE="Helvetica Bold">ForeignKey (id)</FONT>
    </TD></TR>
  
    <TR><TD ALIGN="LEFT" BORDER="0">
    <FONT FACE="Helvetica ">name</FONT>
    </TD><TD ALIGN="LEFT">
    <FONT FACE="Helvetica ">CharField</FONT>
    </TD></TR>
  
    <TR><TD ALIGN="LEFT" BORDER="0">
    <FONT FACE="Helvetica ">order</FONT>
    </TD><TD ALIGN="LEFT">
    <FONT FACE="Helvetica ">IntegerField</FONT>
    </TD></TR>
  
    <TR><TD ALIGN="LEFT" BORDER="0">
    <FONT FACE="Helvetica ">slug</FONT>
    </TD><TD ALIGN="LEFT">
    <FONT FACE="Helvetica ">SlugField</FONT>
    </TD></TR>
  
    </TABLE>
    >]




  djcelery_models_TaskMeta [label=<
    <TABLE BGCOLOR="palegoldenrod" BORDER="0" CELLBORDER="0" CELLSPACING="0">
    <TR><TD COLSPAN="2" CELLPADDING="4" ALIGN="CENTER" BGCOLOR="olivedrab4">
    <FONT FACE="Helvetica Bold" COLOR="white">
    TaskMeta
    </FONT></TD></TR>
  
    <TR><TD ALIGN="LEFT" BORDER="0">
    <FONT FACE="Helvetica Bold">id</FONT>
    </TD><TD ALIGN="LEFT">
    <FONT FACE="Helvetica Bold">AutoField</FONT>
    </TD></TR>
  
    <TR><TD ALIGN="LEFT" BORDER="0">
    <FONT COLOR="#7B7B7B" FACE="Helvetica ">date_done</FONT>
    </TD><TD ALIGN="LEFT">
    <FONT COLOR="#7B7B7B" FACE="Helvetica ">DateTimeField</FONT>
    </TD></TR>
  
    <TR><TD ALIGN="LEFT" BORDER="0">
    <FONT COLOR="#7B7B7B" FACE="Helvetica ">hidden</FONT>
    </TD><TD ALIGN="LEFT">
    <FONT COLOR="#7B7B7B" FACE="Helvetica ">BooleanField</FONT>
    </TD></TR>
  
    <TR><TD ALIGN="LEFT" BORDER="0">
    <FONT FACE="Helvetica ">meta</FONT>
    </TD><TD ALIGN="LEFT">
    <FONT FACE="Helvetica ">PickledObjectField</FONT>
    </TD></TR>
  
    <TR><TD ALIGN="LEFT" BORDER="0">
    <FONT FACE="Helvetica ">result</FONT>
    </TD><TD ALIGN="LEFT">
    <FONT FACE="Helvetica ">PickledObjectField</FONT>
    </TD></TR>
  
    <TR><TD ALIGN="LEFT" BORDER="0">
    <FONT FACE="Helvetica ">status</FONT>
    </TD><TD ALIGN="LEFT">
    <FONT FACE="Helvetica ">CharField</FONT>
    </TD></TR>
  
    <TR><TD ALIGN="LEFT" BORDER="0">
    <FONT FACE="Helvetica ">task_id</FONT>
    </TD><TD ALIGN="LEFT">
    <FONT FACE="Helvetica ">CharField</FONT>
    </TD></TR>
  
    <TR><TD ALIGN="LEFT" BORDER="0">
    <FONT COLOR="#7B7B7B" FACE="Helvetica ">traceback</FONT>
    </TD><TD ALIGN="LEFT">
    <FONT COLOR="#7B7B7B" FACE="Helvetica ">TextField</FONT>
    </TD></TR>
  
    </TABLE>
    >]

  djcelery_models_TaskSetMeta [label=<
    <TABLE BGCOLOR="palegoldenrod" BORDER="0" CELLBORDER="0" CELLSPACING="0">
    <TR><TD COLSPAN="2" CELLPADDING="4" ALIGN="CENTER" BGCOLOR="olivedrab4">
    <FONT FACE="Helvetica Bold" COLOR="white">
    TaskSetMeta
    </FONT></TD></TR>
  
    <TR><TD ALIGN="LEFT" BORDER="0">
    <FONT FACE="Helvetica Bold">id</FONT>
    </TD><TD ALIGN="LEFT">
    <FONT FACE="Helvetica Bold">AutoField</FONT>
    </TD></TR>
  
    <TR><TD ALIGN="LEFT" BORDER="0">
    <FONT COLOR="#7B7B7B" FACE="Helvetica ">date_done</FONT>
    </TD><TD ALIGN="LEFT">
    <FONT COLOR="#7B7B7B" FACE="Helvetica ">DateTimeField</FONT>
    </TD></TR>
  
    <TR><TD ALIGN="LEFT" BORDER="0">
    <FONT COLOR="#7B7B7B" FACE="Helvetica ">hidden</FONT>
    </TD><TD ALIGN="LEFT">
    <FONT COLOR="#7B7B7B" FACE="Helvetica ">BooleanField</FONT>
    </TD></TR>
  
    <TR><TD ALIGN="LEFT" BORDER="0">
    <FONT FACE="Helvetica ">result</FONT>
    </TD><TD ALIGN="LEFT">
    <FONT FACE="Helvetica ">PickledObjectField</FONT>
    </TD></TR>
  
    <TR><TD ALIGN="LEFT" BORDER="0">
    <FONT FACE="Helvetica ">taskset_id</FONT>
    </TD><TD ALIGN="LEFT">
    <FONT FACE="Helvetica ">CharField</FONT>
    </TD></TR>
  
    </TABLE>
    >]

  djcelery_models_IntervalSchedule [label=<
    <TABLE BGCOLOR="palegoldenrod" BORDER="0" CELLBORDER="0" CELLSPACING="0">
    <TR><TD COLSPAN="2" CELLPADDING="4" ALIGN="CENTER" BGCOLOR="olivedrab4">
    <FONT FACE="Helvetica Bold" COLOR="white">
    IntervalSchedule
    </FONT></TD></TR>
  
    <TR><TD ALIGN="LEFT" BORDER="0">
    <FONT FACE="Helvetica Bold">id</FONT>
    </TD><TD ALIGN="LEFT">
    <FONT FACE="Helvetica Bold">AutoField</FONT>
    </TD></TR>
  
    <TR><TD ALIGN="LEFT" BORDER="0">
    <FONT FACE="Helvetica ">every</FONT>
    </TD><TD ALIGN="LEFT">
    <FONT FACE="Helvetica ">IntegerField</FONT>
    </TD></TR>
  
    <TR><TD ALIGN="LEFT" BORDER="0">
    <FONT FACE="Helvetica ">period</FONT>
    </TD><TD ALIGN="LEFT">
    <FONT FACE="Helvetica ">CharField</FONT>
    </TD></TR>
  
    </TABLE>
    >]

  djcelery_models_CrontabSchedule [label=<
    <TABLE BGCOLOR="palegoldenrod" BORDER="0" CELLBORDER="0" CELLSPACING="0">
    <TR><TD COLSPAN="2" CELLPADDING="4" ALIGN="CENTER" BGCOLOR="olivedrab4">
    <FONT FACE="Helvetica Bold" COLOR="white">
    CrontabSchedule
    </FONT></TD></TR>
  
    <TR><TD ALIGN="LEFT" BORDER="0">
    <FONT FACE="Helvetica Bold">id</FONT>
    </TD><TD ALIGN="LEFT">
    <FONT FACE="Helvetica Bold">AutoField</FONT>
    </TD></TR>
  
    <TR><TD ALIGN="LEFT" BORDER="0">
    <FONT FACE="Helvetica ">day_of_month</FONT>
    </TD><TD ALIGN="LEFT">
    <FONT FACE="Helvetica ">CharField</FONT>
    </TD></TR>
  
    <TR><TD ALIGN="LEFT" BORDER="0">
    <FONT FACE="Helvetica ">day_of_week</FONT>
    </TD><TD ALIGN="LEFT">
    <FONT FACE="Helvetica ">CharField</FONT>
    </TD></TR>
  
    <TR><TD ALIGN="LEFT" BORDER="0">
    <FONT FACE="Helvetica ">hour</FONT>
    </TD><TD ALIGN="LEFT">
    <FONT FACE="Helvetica ">CharField</FONT>
    </TD></TR>
  
    <TR><TD ALIGN="LEFT" BORDER="0">
    <FONT FACE="Helvetica ">minute</FONT>
    </TD><TD ALIGN="LEFT">
    <FONT FACE="Helvetica ">CharField</FONT>
    </TD></TR>
  
    <TR><TD ALIGN="LEFT" BORDER="0">
    <FONT FACE="Helvetica ">month_of_year</FONT>
    </TD><TD ALIGN="LEFT">
    <FONT FACE="Helvetica ">CharField</FONT>
    </TD></TR>
  
    </TABLE>
    >]

  djcelery_models_PeriodicTasks [label=<
    <TABLE BGCOLOR="palegoldenrod" BORDER="0" CELLBORDER="0" CELLSPACING="0">
    <TR><TD COLSPAN="2" CELLPADDING="4" ALIGN="CENTER" BGCOLOR="olivedrab4">
    <FONT FACE="Helvetica Bold" COLOR="white">
    PeriodicTasks
    </FONT></TD></TR>
  
    <TR><TD ALIGN="LEFT" BORDER="0">
    <FONT FACE="Helvetica Bold">ident</FONT>
    </TD><TD ALIGN="LEFT">
    <FONT FACE="Helvetica Bold">SmallIntegerField</FONT>
    </TD></TR>
  
    <TR><TD ALIGN="LEFT" BORDER="0">
    <FONT FACE="Helvetica ">last_update</FONT>
    </TD><TD ALIGN="LEFT">
    <FONT FACE="Helvetica ">DateTimeField</FONT>
    </TD></TR>
  
    </TABLE>
    >]

  djcelery_models_PeriodicTask [label=<
    <TABLE BGCOLOR="palegoldenrod" BORDER="0" CELLBORDER="0" CELLSPACING="0">
    <TR><TD COLSPAN="2" CELLPADDING="4" ALIGN="CENTER" BGCOLOR="olivedrab4">
    <FONT FACE="Helvetica Bold" COLOR="white">
    PeriodicTask
    </FONT></TD></TR>
  
    <TR><TD ALIGN="LEFT" BORDER="0">
    <FONT FACE="Helvetica Bold">id</FONT>
    </TD><TD ALIGN="LEFT">
    <FONT FACE="Helvetica Bold">AutoField</FONT>
    </TD></TR>
  
    <TR><TD ALIGN="LEFT" BORDER="0">
    <FONT COLOR="#7B7B7B" FACE="Helvetica Bold">crontab</FONT>
    </TD><TD ALIGN="LEFT">
    <FONT COLOR="#7B7B7B" FACE="Helvetica Bold">ForeignKey (id)</FONT>
    </TD></TR>
  
    <TR><TD ALIGN="LEFT" BORDER="0">
    <FONT COLOR="#7B7B7B" FACE="Helvetica Bold">interval</FONT>
    </TD><TD ALIGN="LEFT">
    <FONT COLOR="#7B7B7B" FACE="Helvetica Bold">ForeignKey (id)</FONT>
    </TD></TR>
  
    <TR><TD ALIGN="LEFT" BORDER="0">
    <FONT COLOR="#7B7B7B" FACE="Helvetica ">args</FONT>
    </TD><TD ALIGN="LEFT">
    <FONT COLOR="#7B7B7B" FACE="Helvetica ">TextField</FONT>
    </TD></TR>
  
    <TR><TD ALIGN="LEFT" BORDER="0">
    <FONT COLOR="#7B7B7B" FACE="Helvetica ">date_changed</FONT>
    </TD><TD ALIGN="LEFT">
    <FONT COLOR="#7B7B7B" FACE="Helvetica ">DateTimeField</FONT>
    </TD></TR>
  
    <TR><TD ALIGN="LEFT" BORDER="0">
    <FONT COLOR="#7B7B7B" FACE="Helvetica ">description</FONT>
    </TD><TD ALIGN="LEFT">
    <FONT COLOR="#7B7B7B" FACE="Helvetica ">TextField</FONT>
    </TD></TR>
  
    <TR><TD ALIGN="LEFT" BORDER="0">
    <FONT COLOR="#7B7B7B" FACE="Helvetica ">enabled</FONT>
    </TD><TD ALIGN="LEFT">
    <FONT COLOR="#7B7B7B" FACE="Helvetica ">BooleanField</FONT>
    </TD></TR>
  
    <TR><TD ALIGN="LEFT" BORDER="0">
    <FONT COLOR="#7B7B7B" FACE="Helvetica ">exchange</FONT>
    </TD><TD ALIGN="LEFT">
    <FONT COLOR="#7B7B7B" FACE="Helvetica ">CharField</FONT>
    </TD></TR>
  
    <TR><TD ALIGN="LEFT" BORDER="0">
    <FONT COLOR="#7B7B7B" FACE="Helvetica ">expires</FONT>
    </TD><TD ALIGN="LEFT">
    <FONT COLOR="#7B7B7B" FACE="Helvetica ">DateTimeField</FONT>
    </TD></TR>
  
    <TR><TD ALIGN="LEFT" BORDER="0">
    <FONT COLOR="#7B7B7B" FACE="Helvetica ">kwargs</FONT>
    </TD><TD ALIGN="LEFT">
    <FONT COLOR="#7B7B7B" FACE="Helvetica ">TextField</FONT>
    </TD></TR>
  
    <TR><TD ALIGN="LEFT" BORDER="0">
    <FONT COLOR="#7B7B7B" FACE="Helvetica ">last_run_at</FONT>
    </TD><TD ALIGN="LEFT">
    <FONT COLOR="#7B7B7B" FACE="Helvetica ">DateTimeField</FONT>
    </TD></TR>
  
    <TR><TD ALIGN="LEFT" BORDER="0">
    <FONT FACE="Helvetica ">name</FONT>
    </TD><TD ALIGN="LEFT">
    <FONT FACE="Helvetica ">CharField</FONT>
    </TD></TR>
  
    <TR><TD ALIGN="LEFT" BORDER="0">
    <FONT COLOR="#7B7B7B" FACE="Helvetica ">queue</FONT>
    </TD><TD ALIGN="LEFT">
    <FONT COLOR="#7B7B7B" FACE="Helvetica ">CharField</FONT>
    </TD></TR>
  
    <TR><TD ALIGN="LEFT" BORDER="0">
    <FONT COLOR="#7B7B7B" FACE="Helvetica ">routing_key</FONT>
    </TD><TD ALIGN="LEFT">
    <FONT COLOR="#7B7B7B" FACE="Helvetica ">CharField</FONT>
    </TD></TR>
  
    <TR><TD ALIGN="LEFT" BORDER="0">
    <FONT FACE="Helvetica ">task</FONT>
    </TD><TD ALIGN="LEFT">
    <FONT FACE="Helvetica ">CharField</FONT>
    </TD></TR>
  
    <TR><TD ALIGN="LEFT" BORDER="0">
    <FONT FACE="Helvetica ">total_run_count</FONT>
    </TD><TD ALIGN="LEFT">
    <FONT FACE="Helvetica ">PositiveIntegerField</FONT>
    </TD></TR>
  
    </TABLE>
    >]

  djcelery_models_WorkerState [label=<
    <TABLE BGCOLOR="palegoldenrod" BORDER="0" CELLBORDER="0" CELLSPACING="0">
    <TR><TD COLSPAN="2" CELLPADDING="4" ALIGN="CENTER" BGCOLOR="olivedrab4">
    <FONT FACE="Helvetica Bold" COLOR="white">
    WorkerState
    </FONT></TD></TR>
  
    <TR><TD ALIGN="LEFT" BORDER="0">
    <FONT FACE="Helvetica Bold">id</FONT>
    </TD><TD ALIGN="LEFT">
    <FONT FACE="Helvetica Bold">AutoField</FONT>
    </TD></TR>
  
    <TR><TD ALIGN="LEFT" BORDER="0">
    <FONT FACE="Helvetica ">hostname</FONT>
    </TD><TD ALIGN="LEFT">
    <FONT FACE="Helvetica ">CharField</FONT>
    </TD></TR>
  
    <TR><TD ALIGN="LEFT" BORDER="0">
    <FONT FACE="Helvetica ">last_heartbeat</FONT>
    </TD><TD ALIGN="LEFT">
    <FONT FACE="Helvetica ">DateTimeField</FONT>
    </TD></TR>
  
    </TABLE>
    >]

  djcelery_models_TaskState [label=<
    <TABLE BGCOLOR="palegoldenrod" BORDER="0" CELLBORDER="0" CELLSPACING="0">
    <TR><TD COLSPAN="2" CELLPADDING="4" ALIGN="CENTER" BGCOLOR="olivedrab4">
    <FONT FACE="Helvetica Bold" COLOR="white">
    TaskState
    </FONT></TD></TR>
  
    <TR><TD ALIGN="LEFT" BORDER="0">
    <FONT FACE="Helvetica Bold">id</FONT>
    </TD><TD ALIGN="LEFT">
    <FONT FACE="Helvetica Bold">AutoField</FONT>
    </TD></TR>
  
    <TR><TD ALIGN="LEFT" BORDER="0">
    <FONT FACE="Helvetica Bold">worker</FONT>
    </TD><TD ALIGN="LEFT">
    <FONT FACE="Helvetica Bold">ForeignKey (id)</FONT>
    </TD></TR>
  
    <TR><TD ALIGN="LEFT" BORDER="0">
    <FONT FACE="Helvetica ">args</FONT>
    </TD><TD ALIGN="LEFT">
    <FONT FACE="Helvetica ">TextField</FONT>
    </TD></TR>
  
    <TR><TD ALIGN="LEFT" BORDER="0">
    <FONT FACE="Helvetica ">eta</FONT>
    </TD><TD ALIGN="LEFT">
    <FONT FACE="Helvetica ">DateTimeField</FONT>
    </TD></TR>
  
    <TR><TD ALIGN="LEFT" BORDER="0">
    <FONT FACE="Helvetica ">expires</FONT>
    </TD><TD ALIGN="LEFT">
    <FONT FACE="Helvetica ">DateTimeField</FONT>
    </TD></TR>
  
    <TR><TD ALIGN="LEFT" BORDER="0">
    <FONT COLOR="#7B7B7B" FACE="Helvetica ">hidden</FONT>
    </TD><TD ALIGN="LEFT">
    <FONT COLOR="#7B7B7B" FACE="Helvetica ">BooleanField</FONT>
    </TD></TR>
  
    <TR><TD ALIGN="LEFT" BORDER="0">
    <FONT FACE="Helvetica ">kwargs</FONT>
    </TD><TD ALIGN="LEFT">
    <FONT FACE="Helvetica ">TextField</FONT>
    </TD></TR>
  
    <TR><TD ALIGN="LEFT" BORDER="0">
    <FONT FACE="Helvetica ">name</FONT>
    </TD><TD ALIGN="LEFT">
    <FONT FACE="Helvetica ">CharField</FONT>
    </TD></TR>
  
    <TR><TD ALIGN="LEFT" BORDER="0">
    <FONT FACE="Helvetica ">result</FONT>
    </TD><TD ALIGN="LEFT">
    <FONT FACE="Helvetica ">TextField</FONT>
    </TD></TR>
  
    <TR><TD ALIGN="LEFT" BORDER="0">
    <FONT FACE="Helvetica ">retries</FONT>
    </TD><TD ALIGN="LEFT">
    <FONT FACE="Helvetica ">IntegerField</FONT>
    </TD></TR>
  
    <TR><TD ALIGN="LEFT" BORDER="0">
    <FONT FACE="Helvetica ">runtime</FONT>
    </TD><TD ALIGN="LEFT">
    <FONT FACE="Helvetica ">FloatField</FONT>
    </TD></TR>
  
    <TR><TD ALIGN="LEFT" BORDER="0">
    <FONT FACE="Helvetica ">state</FONT>
    </TD><TD ALIGN="LEFT">
    <FONT FACE="Helvetica ">CharField</FONT>
    </TD></TR>
  
    <TR><TD ALIGN="LEFT" BORDER="0">
    <FONT FACE="Helvetica ">task_id</FONT>
    </TD><TD ALIGN="LEFT">
    <FONT FACE="Helvetica ">CharField</FONT>
    </TD></TR>
  
    <TR><TD ALIGN="LEFT" BORDER="0">
    <FONT FACE="Helvetica ">traceback</FONT>
    </TD><TD ALIGN="LEFT">
    <FONT FACE="Helvetica ">TextField</FONT>
    </TD></TR>
  
    <TR><TD ALIGN="LEFT" BORDER="0">
    <FONT FACE="Helvetica ">tstamp</FONT>
    </TD><TD ALIGN="LEFT">
    <FONT FACE="Helvetica ">DateTimeField</FONT>
    </TD></TR>
  
    </TABLE>
    >]




  tastypie_models_ApiAccess [label=<
    <TABLE BGCOLOR="palegoldenrod" BORDER="0" CELLBORDER="0" CELLSPACING="0">
    <TR><TD COLSPAN="2" CELLPADDING="4" ALIGN="CENTER" BGCOLOR="olivedrab4">
    <FONT FACE="Helvetica Bold" COLOR="white">
    ApiAccess
    </FONT></TD></TR>
  
    <TR><TD ALIGN="LEFT" BORDER="0">
    <FONT FACE="Helvetica Bold">id</FONT>
    </TD><TD ALIGN="LEFT">
    <FONT FACE="Helvetica Bold">AutoField</FONT>
    </TD></TR>
  
    <TR><TD ALIGN="LEFT" BORDER="0">
    <FONT FACE="Helvetica ">accessed</FONT>
    </TD><TD ALIGN="LEFT">
    <FONT FACE="Helvetica ">PositiveIntegerField</FONT>
    </TD></TR>
  
    <TR><TD ALIGN="LEFT" BORDER="0">
    <FONT FACE="Helvetica ">identifier</FONT>
    </TD><TD ALIGN="LEFT">
    <FONT FACE="Helvetica ">CharField</FONT>
    </TD></TR>
  
    <TR><TD ALIGN="LEFT" BORDER="0">
    <FONT COLOR="#7B7B7B" FACE="Helvetica ">request_method</FONT>
    </TD><TD ALIGN="LEFT">
    <FONT COLOR="#7B7B7B" FACE="Helvetica ">CharField</FONT>
    </TD></TR>
  
    <TR><TD ALIGN="LEFT" BORDER="0">
    <FONT COLOR="#7B7B7B" FACE="Helvetica ">url</FONT>
    </TD><TD ALIGN="LEFT">
    <FONT COLOR="#7B7B7B" FACE="Helvetica ">CharField</FONT>
    </TD></TR>
  
    </TABLE>
    >]

  tastypie_models_ApiKey [label=<
    <TABLE BGCOLOR="palegoldenrod" BORDER="0" CELLBORDER="0" CELLSPACING="0">
    <TR><TD COLSPAN="2" CELLPADDING="4" ALIGN="CENTER" BGCOLOR="olivedrab4">
    <FONT FACE="Helvetica Bold" COLOR="white">
    ApiKey
    </FONT></TD></TR>
  
    <TR><TD ALIGN="LEFT" BORDER="0">
    <FONT FACE="Helvetica Bold">id</FONT>
    </TD><TD ALIGN="LEFT">
    <FONT FACE="Helvetica Bold">AutoField</FONT>
    </TD></TR>
  
    <TR><TD ALIGN="LEFT" BORDER="0">
    <FONT FACE="Helvetica Bold">user</FONT>
    </TD><TD ALIGN="LEFT">
    <FONT FACE="Helvetica Bold">OneToOneField (id)</FONT>
    </TD></TR>
  
    <TR><TD ALIGN="LEFT" BORDER="0">
    <FONT FACE="Helvetica ">created</FONT>
    </TD><TD ALIGN="LEFT">
    <FONT FACE="Helvetica ">DateTimeField</FONT>
    </TD></TR>
  
    <TR><TD ALIGN="LEFT" BORDER="0">
    <FONT COLOR="#7B7B7B" FACE="Helvetica ">key</FONT>
    </TD><TD ALIGN="LEFT">
    <FONT COLOR="#7B7B7B" FACE="Helvetica ">CharField</FONT>
    </TD></TR>
  
    </TABLE>
    >]




  // Relations
  django_contrib_auth_models_AbstractBaseUser [label=<
  <TABLE BGCOLOR="palegoldenrod" BORDER="0" CELLBORDER="0" CELLSPACING="0">
  <TR><TD COLSPAN="2" CELLPADDING="4" ALIGN="CENTER" BGCOLOR="olivedrab4">
  <FONT FACE="Helvetica Bold" COLOR="white">AbstractBaseUser</FONT>
  </TD></TR>
  </TABLE>
  >]
  django_contrib_auth_models_AbstractUser -> django_contrib_auth_models_AbstractBaseUser
  [label="abstract\ninheritance"] [arrowhead=empty, arrowtail=none, dir=both];
  django_contrib_auth_models_PermissionsMixin [label=<
  <TABLE BGCOLOR="palegoldenrod" BORDER="0" CELLBORDER="0" CELLSPACING="0">
  <TR><TD COLSPAN="2" CELLPADDING="4" ALIGN="CENTER" BGCOLOR="olivedrab4">
  <FONT FACE="Helvetica Bold" COLOR="white">PermissionsMixin</FONT>
  </TD></TR>
  </TABLE>
  >]
  django_contrib_auth_models_AbstractUser -> django_contrib_auth_models_PermissionsMixin
  [label="abstract\ninheritance"] [arrowhead=empty, arrowtail=none, dir=both];

  kioskui_models_KioskUser -> django_contrib_auth_models_Group
  [label="groups (user)"] [arrowhead=dot arrowtail=dot, dir=both];

  kioskui_models_KioskUser -> django_contrib_auth_models_Permission
  [label="user_permissions (user)"] [arrowhead=dot arrowtail=dot, dir=both];

  kioskui_models_KioskUser -> django_contrib_auth_models_AbstractUser
  [label="abstract\ninheritance"] [arrowhead=empty, arrowtail=none, dir=both];

  kioskui_models_UserCashFlow -> kioskui_models_KioskUser
  [label="user (usercashflow)"] [arrowhead=none, arrowtail=dot, dir=both];

  kioskui_models_BarcodeProduct -> kioskui_models_Supplier
  [label="supplier (barcodeproduct)"] [arrowhead=none, arrowtail=dot, dir=both];

  kioskui_models_BarcodeProduct -> shop_models_defaults_product_Product
  [label="multi-table\ninheritance"] [arrowhead=empty, arrowtail=none, dir=both];

  kioskui_models_NoBarcodeProduct -> shop_models_defaults_product_Product
  [label="multi-table\ninheritance"] [arrowhead=empty, arrowtail=none, dir=both];

  kioskui_models_CashBox -> kioskui_models_KioskUser
  [label="emptied_by (cashbox)"] [arrowhead=none, arrowtail=dot, dir=both];

  kioskui_models_ExtraCategoryFields -> shop_simplecategories_models_Category
  [label="category (category_field)"] [arrowhead=none, arrowtail=dot, dir=both];

  kioskui_models_RestockCategoryChoice -> kioskui_models_ChoicesPlaceHolder
  [label="place_holder (place_holder)"] [arrowhead=none, arrowtail=dot, dir=both];

  kioskui_models_RestockCategoryChoice -> shop_simplecategories_models_Category
  [label="category (restockcategorychoice)"] [arrowhead=none, arrowtail=dot, dir=both];

  kioskui_models_RestockInventoryReportitems -> kioskui_models_RestockInventoryReport
  [label="report (restockinventoryreportitems)"] [arrowhead=none, arrowtail=dot, dir=both];

  django_contrib_admin_models_LogEntry -> kioskui_models_KioskUser
  [label="user (logentry)"] [arrowhead=none, arrowtail=dot, dir=both];

  django_contrib_admin_models_LogEntry -> django_contrib_contenttypes_models_ContentType
  [label="content_type (logentry)"] [arrowhead=none, arrowtail=dot, dir=both];

  django_contrib_auth_models_Permission -> django_contrib_contenttypes_models_ContentType
  [label="content_type (permission)"] [arrowhead=none, arrowtail=dot, dir=both];

  django_contrib_auth_models_Group -> django_contrib_auth_models_Permission
  [label="permissions (group)"] [arrowhead=dot arrowtail=dot, dir=both];

  shop_models_bases_BaseOrderItem -> shop_models_defaults_order_Order
  [label="order (items)"] [arrowhead=none, arrowtail=dot, dir=both];

  shop_models_bases_BaseOrderItem -> shop_models_defaults_product_Product
  [label="product (baseorderitem)"] [arrowhead=none, arrowtail=dot, dir=both];

  shop_models_bases_BaseCartItem -> shop_models_defaults_cart_Cart
  [label="cart (items)"] [arrowhead=none, arrowtail=dot, dir=both];

  shop_models_bases_BaseCartItem -> shop_models_defaults_product_Product
  [label="product (basecartitem)"] [arrowhead=none, arrowtail=dot, dir=both];

  shop_models_bases_BaseOrder -> kioskui_models_KioskUser
  [label="user (baseorder)"] [arrowhead=none, arrowtail=dot, dir=both];

  shop_models_bases_BaseCart -> kioskui_models_KioskUser
  [label="user (basecart)"] [arrowhead=none, arrowtail=none, dir=both];
  polymorphic_polymorphic_model_PolymorphicModel [label=<
  <TABLE BGCOLOR="palegoldenrod" BORDER="0" CELLBORDER="0" CELLSPACING="0">
  <TR><TD COLSPAN="2" CELLPADDING="4" ALIGN="CENTER" BGCOLOR="olivedrab4">
  <FONT FACE="Helvetica Bold" COLOR="white">PolymorphicModel</FONT>
  </TD></TR>
  </TABLE>
  >]
  shop_models_bases_BaseProduct -> polymorphic_polymorphic_model_PolymorphicModel
  [label="abstract\ninheritance"] [arrowhead=empty, arrowtail=none, dir=both];

  shop_models_defaults_cart_Cart -> shop_models_bases_BaseCart
  [label="abstract\ninheritance"] [arrowhead=empty, arrowtail=none, dir=both];

  shop_models_defaults_cartitem_CartItem -> shop_models_bases_BaseCartItem
  [label="abstract\ninheritance"] [arrowhead=empty, arrowtail=none, dir=both];

  shop_models_defaults_product_Product -> shop_models_bases_BaseProduct
  [label="abstract\ninheritance"] [arrowhead=empty, arrowtail=none, dir=both];

  shop_models_defaults_order_Order -> shop_models_bases_BaseOrder
  [label="abstract\ninheritance"] [arrowhead=empty, arrowtail=none, dir=both];

  shop_models_defaults_orderitem_OrderItem -> shop_models_bases_BaseOrderItem
  [label="abstract\ninheritance"] [arrowhead=empty, arrowtail=none, dir=both];

  shop_models_ordermodel_OrderExtraInfo -> shop_models_defaults_order_Order
  [label="order (extra_info)"] [arrowhead=none, arrowtail=dot, dir=both];

  shop_models_ordermodel_ExtraOrderPriceField -> shop_models_defaults_order_Order
  [label="order (extraorderpricefield)"] [arrowhead=none, arrowtail=dot, dir=both];

  shop_models_ordermodel_ExtraOrderItemPriceField -> shop_models_defaults_orderitem_OrderItem
  [label="order_item (extraorderitempricefield)"] [arrowhead=none, arrowtail=dot, dir=both];

  shop_models_ordermodel_OrderPayment -> shop_models_defaults_order_Order
  [label="order (orderpayment)"] [arrowhead=none, arrowtail=dot, dir=both];

  shop_addressmodel_models_Address -> kioskui_models_KioskUser
  [label="user_shipping (shipping_address)"] [arrowhead=none, arrowtail=none, dir=both];

  shop_addressmodel_models_Address -> kioskui_models_KioskUser
  [label="user_billing (billing_address)"] [arrowhead=none, arrowtail=none, dir=both];

  shop_addressmodel_models_Address -> shop_addressmodel_models_Country
  [label="country (address)"] [arrowhead=none, arrowtail=dot, dir=both];

  shop_simplecategories_models_Category -> shop_simplecategories_models_Category
  [label="parent_category (children)"] [arrowhead=none, arrowtail=dot, dir=both];

  shop_simplecategories_models_Category -> shop_models_defaults_product_Product
  [label="products (categories)"] [arrowhead=dot arrowtail=dot, dir=both];

  djcelery_models_PeriodicTask -> djcelery_models_IntervalSchedule
  [label="interval (periodictask)"] [arrowhead=none, arrowtail=dot, dir=both];

  djcelery_models_PeriodicTask -> djcelery_models_CrontabSchedule
  [label="crontab (periodictask)"] [arrowhead=none, arrowtail=dot, dir=both];

  djcelery_models_TaskState -> djcelery_models_WorkerState
  [label="worker (taskstate)"] [arrowhead=none, arrowtail=dot, dir=both];

  tastypie_models_ApiKey -> kioskui_models_KioskUser
  [label="user (api_key)"] [arrowhead=none, arrowtail=none, dir=both];

}

